<svg width="80" height="80" viewBox="0 0 80 80" fill="none" xmlns="http://www.w3.org/2000/svg">
<rect width="31.55" height="37.3257" fill="black" fill-opacity="0" transform="translate(27.6689 21.3361)"/>
<path d="M27.6689 21.3361L59.219 39.9989L27.6689 58.6617V21.3361Z" fill="white"/>
<rect width="80" height="80" fill="black" fill-opacity="0"/>
<path d="M39.999 80C17.9439 80 0 62.0553 0 39.999C0 17.9428 17.9458 0 39.999 0C62.0542 0 80 17.9447 80 40.001C80 62.0572 62.0561 80 39.999 80ZM39.999 4.68717C20.5293 4.68717 4.68889 20.5283 4.68889 39.999C4.68889 59.4697 20.5293 75.3128 39.999 75.3128C59.4707 75.3128 75.3111 59.4717 75.3111 39.999C75.3111 20.5264 59.4707 4.68717 39.999 4.68717Z" fill="white"/>
</svg>
