<svg width="80" height="80" viewBox="0 0 80 80" fill="none" xmlns="http://www.w3.org/2000/svg">
<path opacity="0.5" fill-rule="evenodd" clip-rule="evenodd" d="M40 80C62.0914 80 80 62.0913 80 40C80 17.9087 62.0914 0 40 0C17.9086 0 0 17.9087 0 40C0 62.0913 17.9086 80 40 80ZM29.5247 28.5281C30.2239 27.8242 31.3579 27.8242 32.0574 28.5281L40.9221 37.4509L48.9426 29.3779C49.6421 28.6741 50.7761 28.6741 51.4756 29.3779C52.1748 30.082 52.1748 31.2234 51.4756 31.9272L43.4551 40.0002L51.4753 48.073C52.1748 48.7769 52.1748 49.9182 51.4753 50.6223C50.7759 51.3262 49.6421 51.3262 48.9426 50.6223L40.9221 42.5496L32.0574 51.4722C31.3579 52.1763 30.2241 52.1763 29.5247 51.4722C28.8252 50.7683 28.8252 49.6267 29.5247 48.9229L38.3894 40.0002L29.5247 31.0774C28.8252 30.3735 28.8252 29.2322 29.5247 28.5281Z" fill="white"/>
</svg>
