<svg width="537" height="243" viewBox="0 0 537 243" fill="none" xmlns="http://www.w3.org/2000/svg">
<rect width="140.422" height="84.2034" fill="black" fill-opacity="0" transform="translate(299.022) scale(-1 1)"/>
<path d="M293.488 41.0405C292.926 41.142 292.366 41.2528 291.81 41.3666C292.369 41.2558 292.926 41.142 293.488 41.0405Z" fill="#9F1731"/>
<path d="M165.123 30.7195C165.713 29.9781 166.316 29.249 166.934 28.5292C170.813 23.9886 175.185 19.8849 179.962 16.2918C180.5 15.8889 181.044 15.4889 181.595 15.0983C185.874 12.0435 190.464 9.39184 195.302 7.20154C196.108 6.83854 196.916 6.48471 197.74 6.14633C198.25 5.93714 198.764 5.73109 199.277 5.53113C204.362 3.55002 209.693 2.06104 215.22 1.13201C216.241 0.959735 217.273 0.805962 218.306 0.673683C218.764 0.615234 219.226 0.559834 219.684 0.510614C222.189 0.230674 224.738 0.0615185 227.311 0.0122983C227.809 0.0030695 228.313 0 228.811 0C231.897 0 234.941 0.175301 237.938 0.510614C238.399 0.559834 238.86 0.615234 239.312 0.673683L239.355 0.676781C245.968 1.53198 252.331 3.18702 258.348 5.53113C258.861 5.73109 259.374 5.93714 259.885 6.14633C265.627 8.5212 271.038 11.5359 276.027 15.0983C276.577 15.4889 277.121 15.8889 277.663 16.2949L277.66 16.2918C282.44 19.8849 286.811 23.9886 290.691 28.5292C291.306 29.249 291.908 29.9781 292.499 30.7195C294.887 33.7158 297.067 36.8844 299.022 40.2068C298.561 40.259 298.103 40.3113 297.645 40.3728C296.243 40.5543 294.863 40.7882 293.485 41.0404C293.842 40.9758 294.192 40.8927 294.555 40.8311C292.938 38.2132 291.167 35.703 289.258 33.3036C285.197 28.2062 280.509 23.6411 275.311 19.7157C275.265 19.6819 275.219 19.645 275.172 19.6112H275.169C270.011 15.732 264.348 12.4804 258.298 9.98245C252.15 7.44146 245.611 5.66342 238.79 4.78976C238.771 4.78668 238.756 4.78356 238.737 4.78356C235.485 4.36827 232.171 4.14677 228.811 4.14677C225.451 4.14677 222.14 4.36827 218.884 4.78356C218.866 4.78356 218.847 4.78668 218.829 4.78976C212.914 5.5496 207.209 6.98614 201.789 9.01032C200.996 9.30564 200.206 9.61325 199.425 9.93626C199.385 9.95164 199.357 9.96707 199.317 9.98245C194.073 12.1481 189.12 14.8799 184.524 18.0976C183.857 18.5683 183.196 19.0451 182.548 19.5343C182.511 19.5589 182.477 19.5866 182.446 19.6112C179.566 21.7738 176.848 24.1302 174.3 26.665C173.845 27.1234 173.38 27.5879 172.935 28.0586C172.919 28.077 172.904 28.0955 172.885 28.1109C172.63 28.3816 172.375 28.6523 172.123 28.923C172.015 29.0399 171.911 29.1537 171.803 29.2706C171.637 29.4521 171.477 29.6336 171.311 29.8151C171.232 29.9074 171.142 30.0027 171.059 30.095C170.134 31.141 169.233 32.2084 168.363 33.3036C166.454 35.7 164.684 38.2132 163.06 40.8311C163.414 40.8927 163.764 40.9727 164.118 41.0373C162.747 40.7881 161.367 40.5543 159.974 40.3728H159.971C159.513 40.3113 159.055 40.259 158.6 40.2068C160.558 36.8844 162.738 33.7158 165.123 30.7195Z" fill="#9F1731"/>
<path d="M174.77 43.72C176.199 44.1876 177.617 44.6828 179.009 45.2242C177.617 44.6828 176.199 44.1876 174.77 43.72Z" fill="#9F1731"/>
<path d="M170.374 42.4277C171.354 42.6892 172.326 42.9753 173.288 43.2676C172.326 42.9753 171.358 42.6892 170.374 42.4277Z" fill="#9F1731"/>
<path d="M168.695 42.0125C169.261 42.1478 169.817 42.2832 170.377 42.4309C169.817 42.2832 169.258 42.1478 168.695 42.0125Z" fill="#9F1731"/>
<path d="M164.124 41.0371C164.696 41.1417 165.265 41.2555 165.833 41.3694C165.265 41.2555 164.696 41.1417 164.124 41.0371Z" fill="#9F1731"/>
<path d="M165.833 41.3726C166.796 41.5664 167.745 41.7816 168.695 42.0124C167.745 41.7816 166.792 41.5664 165.833 41.3726Z" fill="#9F1731"/>
<path d="M173.291 43.2708C173.783 43.4215 174.281 43.5599 174.77 43.7199C174.281 43.5599 173.783 43.4215 173.291 43.2708Z" fill="#9F1731"/>
<path d="M291.81 41.3665C290.839 41.5633 289.873 41.7817 288.914 42.0155C289.873 41.7817 290.835 41.5664 291.81 41.3665Z" fill="#9F1731"/>
<path d="M239.663 0.716751L239.358 0.679856L239.346 0.676758L239.663 0.716751Z" fill="#9F1731"/>
<path d="M284.309 43.2769C283.826 43.4245 283.341 43.5599 282.864 43.7168C283.341 43.563 283.826 43.4245 284.309 43.2769Z" fill="#9F1731"/>
<path d="M287.26 42.4248C286.267 42.6863 285.283 42.9786 284.309 43.277C285.287 42.9786 286.267 42.6894 287.26 42.4248Z" fill="#9F1731"/>
<path d="M288.914 42.0154C288.361 42.1477 287.81 42.2799 287.263 42.4245C287.81 42.283 288.361 42.1507 288.914 42.0154Z" fill="#9F1731"/>
<path d="M278.619 45.2273C278.102 45.4273 277.589 45.6334 277.078 45.8426C276.261 46.1841 275.446 46.5347 274.641 46.8977C274.656 46.8916 274.668 46.8854 274.681 46.8792C264.195 32.9776 247.56 23.9949 228.814 23.9949C210.068 23.9949 193.433 32.9776 182.944 46.8792C182.148 46.5224 181.349 46.1779 180.546 45.8426C180.036 45.6334 179.523 45.4273 179.009 45.2273C190.202 29.8491 208.346 19.8481 228.814 19.8481C249.282 19.8481 267.422 29.8491 278.619 45.2273C280.011 44.6828 281.432 44.1845 282.861 43.7169C281.432 44.1845 280.011 44.6797 278.619 45.2273Z" fill="#9F1731"/>
<path d="M261.88 59.2395L261.794 59.3072C259.371 61.1253 257.059 63.0849 254.871 65.1706C257.059 63.0849 259.371 61.1252 261.794 59.3041C261.821 59.2826 261.849 59.2641 261.88 59.2395Z" fill="#9F1731"/>
<path d="M228.814 39.696C241.729 39.696 253.281 45.5717 260.936 54.7943C260.383 55.185 259.842 55.5818 259.304 55.9879C258.56 56.5447 257.849 57.1385 257.127 57.7199C257.299 57.5845 257.447 57.4245 257.616 57.2892C250.717 49.0663 240.382 43.8428 228.814 43.8428C217.243 43.8428 206.91 49.0663 200.012 57.2892C200.59 57.7475 201.146 58.2367 201.712 58.7135C200.602 57.7814 199.483 56.8585 198.324 55.9879C197.783 55.5849 197.239 55.185 196.692 54.7943C204.34 45.5717 215.899 39.693 228.814 39.696Z" fill="#9F1731"/>
<path d="M218.835 84.1819L218.678 84.2035C218.703 84.2004 218.728 84.1973 218.743 84.1942L218.835 84.1819Z" fill="#9F1731"/>
<path d="M209.92 73.0028L209.794 72.8459C209.815 72.8675 209.834 72.8921 209.852 72.9136L209.92 73.0028Z" fill="#9F1731"/>
<path d="M238.943 84.2033C238.891 84.1972 238.842 84.1879 238.787 84.1817L238.639 84.1633L238.79 84.1817L238.943 84.2033Z" fill="#9F1731"/>
<path d="M228.814 59.5439C235.94 59.5439 242.276 62.9525 246.275 68.2252C245.657 68.9451 245.058 69.6741 244.468 70.4154C243.567 71.5414 242.734 72.7165 241.891 73.8885C242.448 73.1133 242.983 72.3228 243.567 71.566C240.373 66.8163 234.962 63.6907 228.814 63.6907C222.666 63.6907 217.255 66.8162 214.061 71.569C214.639 72.3166 215.165 73.098 215.715 73.867C214.882 72.7011 214.052 71.5352 213.16 70.4154C212.573 69.6741 211.964 68.9451 211.353 68.2252C215.352 62.9525 221.688 59.5439 228.814 59.5439Z" fill="#9F1731"/>
<rect width="140.422" height="84.2064" fill="black" fill-opacity="0" transform="translate(299.022 79.3982) scale(-1 1)"/>
<path d="M293.488 120.438C292.926 120.54 292.366 120.651 291.81 120.765C292.369 120.654 292.926 120.54 293.488 120.438Z" fill="#9F1731"/>
<path d="M165.123 110.118C165.713 109.376 166.316 108.647 166.934 107.927C170.813 103.387 175.185 99.2831 179.962 95.69C180.5 95.287 181.044 94.8871 181.595 94.4964C185.874 91.4417 190.464 88.79 195.302 86.5997C196.108 86.2367 196.916 85.8829 197.74 85.5445C198.25 85.3353 198.764 85.1293 199.277 84.9293C204.362 82.9482 209.693 81.4593 215.22 80.5303C216.241 80.358 217.273 80.2042 218.306 80.0719C218.764 80.0134 219.226 79.958 219.684 79.9088C222.189 79.6289 224.738 79.4597 227.311 79.4105C227.809 79.4013 228.313 79.3982 228.811 79.3982C231.897 79.3982 234.941 79.5735 237.938 79.9088C238.399 79.958 238.86 80.0134 239.312 80.0719L239.355 80.075C245.968 80.9302 252.331 82.5852 258.348 84.9293C258.861 85.1293 259.374 85.3353 259.885 85.5445C265.627 87.9194 271.038 90.9341 276.027 94.4964C276.577 94.8871 277.121 95.2871 277.663 95.6931L277.66 95.69C282.44 99.2831 286.811 103.387 290.691 107.927C291.306 108.647 291.908 109.376 292.499 110.118C294.887 113.114 297.067 116.283 299.022 119.605C298.561 119.657 298.103 119.709 297.645 119.771C296.243 119.953 294.863 120.186 293.485 120.439C293.842 120.374 294.192 120.291 294.555 120.229C292.938 117.612 291.167 115.101 289.258 112.702C285.197 107.604 280.509 103.039 275.311 99.1139C275.265 99.0801 275.219 99.0432 275.172 99.0094H275.169C270.011 95.1302 264.348 91.8786 258.298 89.3806C252.15 86.8397 245.611 85.0616 238.79 84.188C238.771 84.1849 238.756 84.1818 238.737 84.1818C235.485 83.7665 232.171 83.545 228.811 83.545C225.451 83.545 222.14 83.7665 218.884 84.1818C218.866 84.1818 218.847 84.1849 218.829 84.188C212.914 84.9478 207.209 86.3843 201.789 88.4085C200.996 88.7038 200.206 89.0115 199.425 89.3345C199.385 89.3499 199.357 89.3653 199.317 89.3806C194.073 91.5463 189.12 94.2781 184.524 97.4958C183.857 97.9665 183.196 98.4433 182.548 98.9325C182.511 98.9571 182.477 98.9847 182.446 99.0094C179.566 101.172 176.848 103.528 174.3 106.063C173.845 106.522 173.38 106.986 172.935 107.457C172.919 107.475 172.904 107.494 172.885 107.509C172.63 107.78 172.375 108.051 172.123 108.321C172.015 108.438 171.911 108.552 171.803 108.669C171.637 108.85 171.477 109.032 171.311 109.213C171.232 109.306 171.142 109.401 171.059 109.493C170.134 110.539 169.233 111.607 168.363 112.702C166.454 115.098 164.684 117.612 163.06 120.229C163.414 120.291 163.764 120.371 164.118 120.436C162.747 120.186 161.367 119.953 159.974 119.771H159.971C159.513 119.709 159.055 119.657 158.6 119.605C160.558 116.283 162.738 113.114 165.123 110.118Z" fill="#9F1731"/>
<path d="M174.77 123.118C176.199 123.582 177.617 124.081 179.009 124.619C177.617 124.081 176.199 123.586 174.77 123.118Z" fill="#9F1731"/>
<path d="M170.374 121.826C171.354 122.087 172.326 122.374 173.288 122.666C172.326 122.374 171.358 122.084 170.374 121.826Z" fill="#9F1731"/>
<path d="M168.695 121.411C169.261 121.546 169.817 121.681 170.377 121.829C169.817 121.681 169.258 121.546 168.695 121.411Z" fill="#9F1731"/>
<path d="M164.124 120.436C164.696 120.54 165.265 120.654 165.833 120.768C165.265 120.654 164.696 120.54 164.124 120.436Z" fill="#9F1731"/>
<path d="M165.833 120.771C166.796 120.965 167.745 121.18 168.695 121.411C167.745 121.18 166.792 120.965 165.833 120.771Z" fill="#9F1731"/>
<path d="M173.291 122.669C173.783 122.819 174.281 122.958 174.77 123.118C174.281 122.958 173.783 122.819 173.291 122.669Z" fill="#9F1731"/>
<path d="M291.81 120.764C290.839 120.961 289.873 121.18 288.914 121.413C289.873 121.18 290.835 120.964 291.81 120.764Z" fill="#9F1731"/>
<path d="M239.663 80.1149L239.358 80.078L239.346 80.075L239.663 80.1149Z" fill="#9F1731"/>
<path d="M284.309 122.675C283.826 122.826 283.341 122.961 282.864 123.118C283.341 122.961 283.826 122.826 284.309 122.675Z" fill="#9F1731"/>
<path d="M287.26 121.823C286.267 122.084 285.283 122.376 284.309 122.672C285.287 122.376 286.267 122.087 287.26 121.823Z" fill="#9F1731"/>
<path d="M288.914 121.414C288.361 121.546 287.81 121.678 287.263 121.823C287.81 121.681 288.361 121.549 288.914 121.414Z" fill="#9F1731"/>
<path d="M278.619 124.628C278.102 124.825 277.589 125.031 277.078 125.241C276.261 125.582 275.446 125.933 274.641 126.299C274.656 126.293 274.668 126.286 274.681 126.28C264.195 112.376 247.56 103.396 228.814 103.396C210.068 103.396 193.433 112.379 182.944 126.28C182.148 125.92 181.349 125.576 180.546 125.241C180.036 125.031 179.523 124.825 179.009 124.628C190.202 109.247 208.346 99.2493 228.814 99.2493C249.282 99.2493 267.422 109.247 278.616 124.625C280.011 124.084 281.432 123.586 282.861 123.121C281.428 123.586 280.011 124.084 278.616 124.625C278.619 124.625 278.619 124.625 278.619 124.628Z" fill="#9F1731"/>
<path d="M261.88 138.638L261.794 138.702C259.371 140.523 257.059 142.483 254.871 144.566C257.059 142.48 259.371 140.523 261.794 138.702C261.821 138.681 261.849 138.662 261.88 138.638Z" fill="#9F1731"/>
<path d="M228.814 119.094C241.729 119.094 253.281 124.97 260.936 134.193C260.383 134.583 259.842 134.98 259.304 135.389C258.56 135.949 257.849 136.537 257.127 137.121C257.299 136.983 257.447 136.826 257.616 136.69C250.717 128.468 240.382 123.244 228.814 123.244C217.243 123.244 206.91 128.468 200.012 136.69C200.59 137.149 201.146 137.638 201.712 138.115C200.602 137.183 199.483 136.26 198.324 135.389C197.783 134.986 197.239 134.583 196.692 134.193C204.34 124.97 215.899 119.091 228.814 119.094Z" fill="#9F1731"/>
<path d="M218.835 163.58L218.678 163.605C218.703 163.599 218.728 163.595 218.743 163.592L218.835 163.58Z" fill="#9F1731"/>
<path d="M209.92 152.401L209.794 152.241C209.815 152.266 209.834 152.29 209.852 152.309L209.92 152.401Z" fill="#9F1731"/>
<path d="M238.943 163.605C238.891 163.595 238.842 163.586 238.787 163.58L238.639 163.562L238.79 163.58L238.943 163.605Z" fill="#9F1731"/>
<path d="M228.814 138.942C235.94 138.942 242.276 142.351 246.275 147.621C245.657 148.34 245.058 149.072 244.468 149.814C243.567 150.937 242.734 152.112 241.891 153.287C242.448 152.509 242.983 151.718 243.567 150.961C240.373 146.215 234.962 143.086 228.814 143.086C222.666 143.086 217.255 146.215 214.061 150.967C214.639 151.712 215.165 152.493 215.715 153.262C214.882 152.096 214.052 150.931 213.16 149.814C212.573 149.072 211.964 148.34 211.353 147.621C215.352 142.351 221.688 138.942 228.814 138.942Z" fill="#9F1731"/>
<rect width="140.419" height="71.8556" fill="black" fill-opacity="0" transform="translate(378.36 39.696) scale(-1 1)"/>
<path d="M244.468 70.4156C245.055 69.6742 245.657 68.9452 246.275 68.2253C249.691 64.2262 253.493 60.5623 257.616 57.2923C258.175 56.8524 258.732 56.4186 259.3 55.991C259.838 55.5849 260.386 55.1881 260.933 54.7943C265.925 51.232 271.336 48.2203 277.078 45.8455C277.589 45.6332 278.102 45.4271 278.616 45.2272C284.644 42.88 291.02 41.228 297.645 40.3728C298.103 40.3144 298.561 40.259 299.022 40.2098C302.016 39.8744 305.063 39.696 308.152 39.696C311.239 39.696 314.285 39.8744 317.279 40.2098C317.741 40.259 318.199 40.3144 318.657 40.3728C325.282 41.228 331.657 42.88 337.686 45.2272C338.202 45.4271 338.713 45.6332 339.223 45.8455C340.028 46.1777 340.828 46.5223 341.621 46.8822C342.543 47.2975 343.456 47.7312 344.36 48.1804C347.938 49.9615 351.366 51.998 354.618 54.2683C354.652 54.2898 354.683 54.3114 354.717 54.336C354.935 54.4867 355.153 54.6405 355.368 54.7943C355.919 55.1881 356.463 55.5849 357.001 55.991C359.878 58.1536 362.608 60.5008 365.172 63.0203C365.212 63.0602 365.255 63.1002 365.295 63.1402C365.356 63.2018 365.415 63.2603 365.476 63.3187C367.06 64.8907 368.578 66.5272 370.029 68.2253C370.644 68.9452 371.247 69.6773 371.837 70.4156C374.225 73.4149 376.408 76.5835 378.36 79.9028C377.902 79.9551 377.444 80.0104 376.986 80.0689H376.983C375.587 80.2504 373.54 80.5857 373.897 80.5273C372.276 77.9125 370.506 75.3991 368.597 73.0027L368.526 72.9135C368.507 72.892 368.489 72.8704 368.471 72.8458C364.407 67.7669 359.715 63.2171 354.511 59.3072C349.392 55.4619 343.785 52.2349 337.793 49.7431C337.744 49.7216 337.692 49.7 337.64 49.6785C331.879 47.2975 325.767 45.5932 319.404 44.6642C319.029 44.6088 318.654 44.5565 318.279 44.5073C318.229 44.5012 318.177 44.4951 318.125 44.4889H318.128C314.86 44.0675 311.531 43.8459 308.152 43.8459C304.774 43.8459 301.441 44.0675 298.173 44.4889H298.177C298.118 44.4951 298.06 44.5012 298.004 44.5104C291.241 45.3994 284.755 47.1621 278.662 49.6785C276.971 50.3768 275.314 51.1336 273.688 51.9457C270.364 53.6069 267.18 55.4988 264.148 57.603C263.961 57.7322 263.776 57.8645 263.589 57.9967C263.395 58.1321 263.199 58.2705 263.008 58.409C262.599 58.7043 262.19 59.0057 261.791 59.3072C256.537 63.2571 251.8 67.8592 247.711 73.0027C245.796 75.3991 244.028 77.9125 242.408 80.5273C242.768 80.5888 240.72 80.2504 239.321 80.0689H239.318C238.86 80.0104 238.402 79.9551 237.941 79.9028C239.899 76.5835 242.079 73.4118 244.468 70.4156Z" fill="#9F1731"/>
<path d="M308.152 59.5439C328.62 59.5439 346.767 69.5449 357.957 84.9231C357.444 85.1231 356.93 85.3292 356.42 85.5384C355.614 85.8737 354.815 86.2183 354.022 86.5751C343.533 72.6735 326.899 63.6907 308.152 63.6907C289.406 63.6907 272.772 72.6735 262.282 86.5751C262.476 86.6643 262.658 86.7781 262.854 86.8674C261.871 86.4121 260.89 85.9537 259.885 85.5384C259.377 85.3292 258.864 85.1231 258.348 84.9231H258.351C269.538 69.5449 287.684 59.5439 308.152 59.5439Z" fill="#9F1731"/>
<path d="M308.152 79.3982C321.064 79.3982 332.623 85.2708 340.274 94.4903C339.724 94.881 339.18 95.2809 338.642 95.6839C337.836 96.2869 336.724 97.1698 336.954 96.9852C330.053 88.7654 319.717 83.545 308.152 83.545C296.584 83.545 286.249 88.7654 279.347 96.9852C279.513 97.1175 278.4 96.2377 277.663 95.6839C277.121 95.2809 276.577 94.881 276.03 94.4903C283.682 85.2739 295.238 79.3982 308.152 79.3982Z" fill="#9F1731"/>
<path d="M293.399 111.262C293.654 111.591 293.719 111.678 293.399 111.262V111.262Z" fill="#9F1731"/>
<path d="M322.899 111.262C322.899 111.262 322.902 111.262 322.899 111.262C322.57 111.693 322.638 111.601 322.899 111.262Z" fill="#9F1731"/>
<path d="M308.152 99.2461C315.275 99.2461 321.614 102.652 325.61 107.921C324.996 108.641 324.393 109.37 323.803 110.111C323.412 110.604 323.102 111.001 322.902 111.262C319.711 106.518 314.307 103.396 308.158 103.396H308.155C302.007 103.393 296.596 106.512 293.405 111.262C293.206 111.004 292.892 110.604 292.505 110.111C291.914 109.37 291.312 108.641 290.697 107.921C294.69 102.648 301.026 99.2461 308.152 99.2461Z" fill="#9F1731"/>
<rect width="140.419" height="71.8556" fill="black" fill-opacity="0" transform="translate(219.714 39.696) scale(-1 1)"/>
<path d="M85.8248 70.4156C86.4151 69.6742 87.0175 68.9452 87.6324 68.2253C91.0509 64.2262 94.8536 60.5623 98.9761 57.2923C99.5325 56.8524 100.092 56.4186 100.658 55.991C101.199 55.5849 101.746 55.1881 102.29 54.7943C107.286 51.232 112.696 48.2203 118.436 45.8455C118.946 45.6332 119.462 45.4271 119.973 45.2272C126.001 42.88 132.377 41.228 139.002 40.3728C139.46 40.3144 139.918 40.259 140.379 40.2098C143.373 39.8744 146.42 39.696 149.509 39.696C152.596 39.696 155.642 39.8744 158.64 40.2098C159.098 40.259 159.559 40.3144 160.014 40.3728C166.636 41.228 173.015 42.88 179.04 45.2272C179.556 45.4271 180.067 45.6332 180.577 45.8455C181.386 46.1777 182.182 46.5223 182.978 46.8822C183.897 47.2975 184.81 47.7312 185.717 48.1804C189.295 49.9615 192.723 51.998 195.976 54.2683C196.009 54.2898 196.04 54.3114 196.074 54.336C196.289 54.4867 196.511 54.6405 196.723 54.7943C197.276 55.1881 197.817 55.5849 198.355 55.991C201.236 58.1536 203.962 60.5008 206.526 63.0203C206.569 63.0602 206.609 63.1002 206.649 63.1402C206.714 63.2018 206.769 63.2603 206.834 63.3187C208.417 64.8907 209.935 66.5272 211.383 68.2253C211.998 68.9452 212.601 69.6773 213.191 70.4156C215.58 73.4149 217.762 76.5835 219.714 79.9028C219.256 79.9551 218.798 80.0104 218.343 80.0689H218.337C216.945 80.2504 214.897 80.5857 215.251 80.5273C213.631 77.9125 211.86 75.3991 209.951 73.0027L209.883 72.9135C209.862 72.892 209.843 72.8704 209.825 72.8458C205.761 67.7669 201.066 63.2171 195.865 59.3072C190.746 55.4619 185.139 52.2349 179.148 49.7431C179.098 49.7216 179.046 49.7 178.994 49.6785C173.233 47.2975 167.121 45.5932 160.758 44.6642C160.383 44.6088 160.008 44.5565 159.633 44.5073C159.584 44.5012 159.531 44.4951 159.479 44.4889H159.482C156.214 44.0675 152.885 43.8459 149.506 43.8459C146.128 43.8459 142.795 44.0675 139.528 44.4889H139.531C139.469 44.4951 139.414 44.5012 139.359 44.5104C132.595 45.3994 126.109 47.1621 120.016 49.6785C118.322 50.3768 116.665 51.1336 115.042 51.9457C111.719 53.6069 108.534 55.4988 105.503 57.603C105.312 57.7322 105.131 57.8645 104.94 57.9967C104.746 58.1321 104.553 58.2705 104.362 58.409C103.953 58.7043 103.544 59.0057 103.145 59.3072C97.891 63.2571 93.1537 67.8592 89.062 73.0027C87.1498 75.3991 85.3791 77.9125 83.7621 80.5273C84.1218 80.5888 82.0743 80.2504 80.6755 80.0689H80.6694C80.2144 80.0104 79.7564 79.9551 79.2953 79.9028C81.2566 76.5835 83.4362 73.4118 85.8248 70.4156Z" fill="#9F1731"/>
<path d="M149.509 59.5439C169.977 59.5439 188.127 69.5449 199.314 84.9231C198.804 85.1231 198.287 85.3292 197.777 85.5384C196.972 85.8737 196.175 86.2183 195.382 86.5751C184.893 72.6735 168.259 63.6907 149.509 63.6907C130.763 63.6907 114.132 72.6735 103.643 86.5751C103.836 86.6643 104.015 86.7781 104.215 86.8674C103.231 86.4121 102.247 85.9537 101.242 85.5384C100.738 85.3292 100.221 85.1231 99.7047 84.9231H99.7078C110.898 69.5449 129.045 59.5439 149.509 59.5439Z" fill="#9F1731"/>
<path d="M149.513 79.3982C162.424 79.3982 173.983 85.2708 181.632 94.4903C181.084 94.881 180.54 95.2809 180.002 95.6839C179.197 96.2869 178.084 97.1698 178.314 96.9852C171.413 88.7654 161.078 83.545 149.513 83.545C137.944 83.545 127.609 88.7654 120.707 96.9852C120.877 97.1175 119.761 96.2377 119.023 95.6839C118.479 95.2809 117.938 94.881 117.39 94.4903C125.042 85.2739 136.598 79.3982 149.513 79.3982Z" fill="#9F1731"/>
<path d="M134.76 111.262C135.015 111.591 135.079 111.678 134.76 111.262V111.262Z" fill="#9F1731"/>
<path d="M164.259 111.262C164.259 111.262 164.262 111.262 164.259 111.262C163.934 111.693 163.998 111.601 164.259 111.262Z" fill="#9F1731"/>
<path d="M149.509 99.2461C156.632 99.2461 162.971 102.652 166.971 107.921C166.356 108.641 165.753 109.37 165.163 110.111C164.77 110.604 164.459 111.001 164.259 111.262C161.068 106.518 155.664 103.396 149.516 103.396H149.509C143.361 103.393 137.951 106.512 134.763 111.262C134.56 111.004 134.249 110.604 133.859 110.111C133.269 109.37 132.666 108.641 132.051 107.921C136.051 102.648 142.39 99.2461 149.509 99.2461Z" fill="#9F1731"/>
<rect width="140.419" height="84.2064" fill="black" fill-opacity="0" transform="translate(457.662 79.3982) scale(-1 1)"/>
<path d="M452.128 120.438C451.566 120.54 451.006 120.651 450.45 120.765C451.009 120.654 451.566 120.54 452.128 120.438Z" fill="#9F1731"/>
<path d="M323.763 110.118C324.353 109.376 324.956 108.647 325.571 107.927C329.453 103.387 333.822 99.2831 338.602 95.69C339.14 95.287 339.684 94.8871 340.234 94.4964C344.514 91.4417 349.103 88.79 353.942 86.5997C354.748 86.2367 355.559 85.8829 356.38 85.5445C356.89 85.3353 357.404 85.1293 357.917 84.9293C363.002 82.9482 368.332 81.4593 373.857 80.5303C374.88 80.358 375.91 80.2042 376.946 80.0719C377.404 80.0134 377.862 79.958 378.323 79.9088C380.832 79.6289 383.377 79.4597 385.953 79.4105C386.451 79.4013 386.953 79.3982 387.451 79.3982C390.54 79.3982 393.584 79.5735 396.581 79.9088C397.039 79.958 397.5 80.0134 397.955 80.0719L397.995 80.075C404.611 80.9302 410.974 82.5852 416.987 84.9293C417.501 85.1293 418.014 85.3353 418.524 85.5445C424.267 87.9194 429.677 90.9341 434.667 94.4964C435.217 94.8871 435.761 95.2871 436.302 95.6931L436.299 95.69C441.08 99.2831 445.451 103.387 449.331 107.927C449.945 108.647 450.548 109.376 451.138 110.118C453.527 113.114 455.706 116.283 457.662 119.605C457.201 119.657 456.742 119.709 456.284 119.771C454.883 119.953 453.502 120.186 452.125 120.439C452.482 120.374 452.832 120.291 453.195 120.229C451.578 117.612 449.807 115.101 447.898 112.702C443.837 107.604 439.149 103.039 433.951 99.1139C433.904 99.0801 433.858 99.0432 433.812 99.0094H433.809C428.651 95.1302 422.988 91.8786 416.941 89.3806C410.793 86.8397 404.251 85.0616 397.429 84.188C397.414 84.1849 397.399 84.1818 397.38 84.1818C394.128 83.7665 390.814 83.545 387.451 83.545C384.091 83.545 380.78 83.7665 377.527 84.1818C377.509 84.1818 377.493 84.1849 377.475 84.188C371.557 84.9478 365.851 86.3843 360.432 88.4085C359.639 88.7038 358.852 89.0115 358.071 89.3345C358.034 89.3499 358 89.3653 357.963 89.3806C352.719 91.5463 347.763 94.2781 343.173 97.4958C342.506 97.9665 341.845 98.4433 341.193 98.9325C341.16 98.9571 341.126 98.9847 341.092 99.0094C338.215 101.172 335.494 103.528 332.945 106.063C332.487 106.522 332.029 106.986 331.58 107.457C331.565 107.475 331.55 107.494 331.531 107.509C331.276 107.78 331.021 108.051 330.769 108.321C330.661 108.438 330.557 108.552 330.449 108.669C330.283 108.85 330.12 109.032 329.957 109.213C329.874 109.306 329.788 109.401 329.705 109.493C328.777 110.539 327.876 111.607 327.006 112.702C325.097 115.098 323.326 117.612 321.706 120.229C322.063 120.291 322.41 120.371 322.764 120.436C321.393 120.186 320.015 119.953 318.62 119.771H318.617C318.159 119.709 317.701 119.657 317.243 119.605C319.198 116.283 321.38 113.114 323.763 110.118Z" fill="#9F1731"/>
<path d="M333.41 123.118C334.839 123.582 336.256 124.081 337.649 124.619C336.253 124.081 334.839 123.586 333.41 123.118Z" fill="#9F1731"/>
<path d="M329.017 121.826C329.997 122.087 330.966 122.374 331.931 122.666C330.966 122.374 329.997 122.084 329.017 121.826Z" fill="#9F1731"/>
<path d="M327.335 121.411C327.898 121.546 328.457 121.681 329.017 121.829C328.457 121.681 327.898 121.546 327.335 121.411Z" fill="#9F1731"/>
<path d="M322.764 120.436C323.336 120.54 323.904 120.654 324.473 120.768C323.904 120.654 323.336 120.54 322.764 120.436Z" fill="#9F1731"/>
<path d="M324.473 120.771C325.435 120.965 326.388 121.18 327.335 121.411C326.385 121.18 325.432 120.965 324.473 120.771Z" fill="#9F1731"/>
<path d="M331.931 122.669C332.423 122.819 332.921 122.958 333.41 123.118C332.921 122.958 332.423 122.819 331.931 122.669Z" fill="#9F1731"/>
<path d="M450.45 120.764C449.478 120.961 448.513 121.18 447.554 121.413C448.513 121.18 449.475 120.964 450.45 120.764Z" fill="#9F1731"/>
<path d="M398.302 80.1149L397.995 80.078L397.983 80.075L398.302 80.1149Z" fill="#9F1731"/>
<path d="M442.949 122.675C442.466 122.826 441.98 122.961 441.504 123.118C441.98 122.961 442.466 122.826 442.949 122.675Z" fill="#9F1731"/>
<path d="M445.9 121.823C444.907 122.084 443.923 122.376 442.949 122.672C443.926 122.376 444.907 122.087 445.9 121.823Z" fill="#9F1731"/>
<path d="M447.554 121.414C447 121.546 446.45 121.678 445.903 121.823C446.45 121.681 447 121.549 447.554 121.414Z" fill="#9F1731"/>
<path d="M437.258 124.628C436.742 124.825 436.228 125.031 435.718 125.241C434.9 125.582 434.086 125.933 433.28 126.299C433.296 126.293 433.308 126.286 433.32 126.28C422.834 112.376 406.2 103.396 387.454 103.396C368.707 103.396 352.073 112.379 341.584 126.28C340.791 125.92 339.991 125.576 339.186 125.241C338.676 125.031 338.162 124.825 337.649 124.628C348.839 109.247 366.986 99.2493 387.454 99.2493C407.922 99.2493 426.062 109.247 437.255 124.625C438.651 124.084 440.071 123.586 441.501 123.121C440.068 123.586 438.651 124.084 437.255 124.625C437.258 124.625 437.258 124.625 437.258 124.628Z" fill="#9F1731"/>
<path d="M420.519 138.638L420.433 138.702C418.011 140.523 415.699 142.483 413.51 144.566C415.699 142.48 418.011 140.523 420.433 138.702C420.461 138.681 420.492 138.662 420.519 138.638Z" fill="#9F1731"/>
<path d="M387.454 119.094C400.368 119.094 411.924 124.97 419.576 134.193C419.025 134.583 418.481 134.98 417.943 135.389C417.202 135.949 416.489 136.537 415.767 137.121C415.936 136.983 416.087 136.826 416.259 136.69C409.357 128.468 399.022 123.244 387.454 123.244C375.886 123.244 365.55 128.468 358.652 136.69C359.23 137.149 359.786 137.638 360.352 138.115C359.242 137.183 358.123 136.26 356.964 135.389C356.426 134.986 355.882 134.583 355.332 134.193C362.983 124.97 374.539 119.091 387.454 119.094Z" fill="#9F1731"/>
<path d="M377.478 163.58L377.321 163.605C377.343 163.599 377.367 163.595 377.389 163.592L377.478 163.58Z" fill="#9F1731"/>
<path d="M368.557 152.401L368.434 152.241C368.452 152.266 368.471 152.29 368.489 152.309L368.557 152.401Z" fill="#9F1731"/>
<path d="M397.583 163.605C397.534 163.595 397.482 163.586 397.429 163.58L397.282 163.562L397.432 163.58L397.583 163.605Z" fill="#9F1731"/>
<path d="M387.454 138.942C394.58 138.942 400.912 142.351 404.912 147.621C404.297 148.34 403.695 149.072 403.104 149.814C402.207 150.937 401.37 152.112 400.531 153.287C401.085 152.509 401.623 151.718 402.204 150.961C399.01 146.215 393.602 143.086 387.454 143.086C381.305 143.086 375.895 146.215 372.701 150.967C373.276 151.712 373.807 152.493 374.355 153.262C373.521 152.096 372.691 150.931 371.8 149.814C371.21 149.072 370.607 148.34 369.992 147.621C373.992 142.351 380.328 138.942 387.454 138.942Z" fill="#9F1731"/>
<rect width="140.419" height="84.2064" fill="black" fill-opacity="0" transform="translate(457.662 158.793) scale(-1 1)"/>
<path d="M452.128 199.84C451.566 199.942 451.006 200.049 450.45 200.163C451.009 200.049 451.566 199.942 452.128 199.84Z" fill="#9F1731"/>
<path d="M323.763 189.516C324.353 188.778 324.956 188.043 325.571 187.326C329.453 182.785 333.822 178.681 338.602 175.088C339.14 174.685 339.684 174.282 340.234 173.892C344.514 170.84 349.103 168.185 353.942 165.998C354.748 165.632 355.559 165.281 356.38 164.94C356.89 164.731 357.404 164.525 357.917 164.328C363.002 162.343 368.332 160.855 373.857 159.929C374.88 159.753 375.91 159.599 376.946 159.467C377.404 159.409 377.862 159.353 378.323 159.304C380.832 159.024 383.377 158.855 385.953 158.806C386.451 158.8 386.953 158.793 387.451 158.793C390.54 158.793 393.584 158.969 396.581 159.304C397.039 159.353 397.5 159.409 397.955 159.467L397.995 159.473C404.611 160.325 410.974 161.984 416.987 164.328C417.501 164.525 418.014 164.731 418.524 164.94C424.267 167.315 429.677 170.329 434.667 173.892C435.217 174.282 435.761 174.685 436.302 175.088H436.299C441.08 178.681 445.451 182.785 449.331 187.326C449.945 188.043 450.548 188.778 451.138 189.516C453.527 192.515 455.706 195.681 457.662 199.003C457.201 199.059 456.742 199.108 456.284 199.172C454.883 199.354 453.502 199.588 452.125 199.84C452.482 199.775 452.832 199.689 453.195 199.631C451.578 197.01 449.807 194.503 447.898 192.103C443.837 187.009 439.149 182.441 433.951 178.515C433.904 178.482 433.858 178.448 433.812 178.411H433.809C428.651 174.532 422.988 171.28 416.941 168.785C410.793 166.244 404.251 164.466 397.429 163.589C397.414 163.589 397.399 163.583 397.38 163.583C394.128 163.168 390.814 162.946 387.451 162.946C384.091 162.946 380.78 163.168 377.527 163.583C377.509 163.583 377.493 163.589 377.475 163.589C371.557 164.352 365.851 165.789 360.432 167.813C359.639 168.108 358.852 168.413 358.071 168.739C358.034 168.754 358 168.77 357.963 168.788C352.719 170.951 347.763 173.686 343.173 176.9C342.506 177.374 341.845 177.851 341.193 178.34C341.16 178.365 341.126 178.392 341.092 178.414C338.215 180.577 335.494 182.933 332.945 185.468C332.487 185.926 332.029 186.394 331.58 186.861C331.565 186.88 331.55 186.898 331.531 186.917C331.276 187.187 331.021 187.458 330.769 187.729C330.661 187.846 330.557 187.96 330.449 188.076C330.283 188.258 330.12 188.436 329.957 188.621C329.874 188.713 329.788 188.812 329.705 188.901C328.777 189.947 327.876 191.017 327.006 192.109C325.097 194.506 323.326 197.019 321.706 199.637C322.063 199.699 322.41 199.779 322.764 199.84C321.393 199.594 320.015 199.36 318.62 199.179H318.617C318.159 199.114 317.701 199.065 317.243 199.009C319.198 195.681 321.38 192.515 323.763 189.516Z" fill="#9F1731"/>
<path d="M333.41 202.516C334.839 202.981 336.256 203.479 337.649 204.021C336.253 203.479 334.839 202.981 333.41 202.516Z" fill="#9F1731"/>
<path d="M329.017 201.227C329.997 201.486 330.966 201.775 331.931 202.067C330.966 201.775 329.997 201.486 329.017 201.227Z" fill="#9F1731"/>
<path d="M327.335 200.806C327.898 200.944 328.457 201.077 329.017 201.227C328.457 201.077 327.898 200.944 327.335 200.806Z" fill="#9F1731"/>
<path d="M322.764 199.834C323.336 199.938 323.904 200.052 324.473 200.169C323.904 200.049 323.336 199.938 322.764 199.834Z" fill="#9F1731"/>
<path d="M324.473 200.169C325.435 200.363 326.388 200.578 327.335 200.806C326.385 200.578 325.432 200.363 324.473 200.169Z" fill="#9F1731"/>
<path d="M331.931 202.067C332.423 202.218 332.921 202.356 333.41 202.516C332.921 202.356 332.423 202.218 331.931 202.067Z" fill="#9F1731"/>
<path d="M450.45 200.163C449.478 200.36 448.513 200.578 447.554 200.812C448.513 200.578 449.475 200.363 450.45 200.163Z" fill="#9F1731"/>
<path d="M398.302 159.513L397.995 159.477H397.983L398.302 159.513Z" fill="#9F1731"/>
<path d="M442.949 202.073C442.466 202.221 441.98 202.356 441.504 202.513C441.98 202.356 442.466 202.221 442.949 202.073Z" fill="#9F1731"/>
<path d="M445.9 201.221C444.907 201.486 443.923 201.775 442.949 202.073C443.926 201.775 444.907 201.486 445.9 201.221Z" fill="#9F1731"/>
<path d="M447.554 200.812C447 200.944 446.45 201.077 445.903 201.221C446.45 201.077 447 200.944 447.554 200.812Z" fill="#9F1731"/>
<path d="M437.258 204.024C436.742 204.224 436.228 204.43 435.718 204.639C434.9 204.98 434.086 205.331 433.28 205.694C433.296 205.688 433.308 205.682 433.32 205.676C422.834 191.774 406.2 182.794 387.454 182.794C368.707 182.794 352.073 191.777 341.584 205.676C340.791 205.319 339.991 204.974 339.186 204.639C338.676 204.43 338.162 204.224 337.649 204.024C348.839 188.645 366.986 178.645 387.454 178.645C407.922 178.645 426.062 188.645 437.258 204.024C438.651 203.479 440.071 202.981 441.501 202.513C440.071 202.981 438.651 203.476 437.258 204.024C437.258 204.021 437.258 204.021 437.258 204.024Z" fill="#9F1731"/>
<path d="M420.519 218.039L420.433 218.104C418.011 219.925 415.699 221.885 413.51 223.967C415.699 221.882 418.011 219.925 420.433 218.101C420.461 218.082 420.492 218.061 420.519 218.039Z" fill="#9F1731"/>
<path d="M387.454 198.493C400.368 198.493 411.924 204.368 419.576 213.591C419.025 213.982 418.481 214.378 417.943 214.788C417.202 215.344 416.489 215.935 415.767 216.52C415.936 216.381 416.087 216.224 416.259 216.086C409.357 207.866 399.022 202.64 387.454 202.64C375.886 202.64 365.55 207.866 358.652 216.086C359.23 216.547 359.786 217.036 360.352 217.51C359.242 216.578 358.123 215.658 356.964 214.788C356.426 214.382 355.882 213.982 355.332 213.591C362.983 204.368 374.539 198.49 387.454 198.493Z" fill="#9F1731"/>
<path d="M377.478 242.978L377.321 243C377.343 242.997 377.367 242.991 377.389 242.991L377.478 242.978Z" fill="#9F1731"/>
<path d="M368.557 231.799L368.434 231.643C368.452 231.667 368.471 231.692 368.489 231.707L368.557 231.799Z" fill="#9F1731"/>
<path d="M397.583 243C397.534 242.991 397.482 242.985 397.429 242.978L397.282 242.96L397.432 242.978L397.583 243Z" fill="#9F1731"/>
<path d="M387.454 218.341C394.58 218.341 400.912 221.749 404.912 227.022C404.297 227.742 403.695 228.471 403.104 229.212C402.207 230.338 401.37 231.51 400.531 232.685C401.085 231.907 401.623 231.119 402.204 230.363C399.01 225.613 393.602 222.484 387.454 222.484C381.305 222.484 375.895 225.613 372.701 230.366C373.276 231.113 373.807 231.895 374.355 232.664C373.521 231.498 372.691 230.329 371.8 229.212C371.21 228.471 370.607 227.742 369.992 227.022C373.992 221.749 380.328 218.341 387.454 218.341Z" fill="#9F1731"/>
<rect width="140.419" height="71.8591" fill="black" fill-opacity="0" transform="translate(537 119.091) scale(-1 1)"/>
<path d="M403.104 149.814C403.695 149.076 404.297 148.34 404.912 147.624C408.33 143.625 412.13 139.961 416.256 136.691C416.812 136.248 417.375 135.817 417.94 135.386C418.478 134.983 419.025 134.583 419.573 134.19C424.565 130.627 429.976 127.616 435.718 125.244C436.228 125.028 436.742 124.822 437.255 124.626C443.284 122.275 449.66 120.626 456.284 119.768C456.742 119.71 457.201 119.654 457.662 119.605C460.656 119.27 463.702 119.091 466.792 119.091C469.878 119.091 472.925 119.27 475.919 119.605C476.38 119.654 476.838 119.71 477.296 119.768C483.921 120.623 490.297 122.275 496.326 124.626C496.842 124.822 497.352 125.028 497.863 125.244C498.668 125.573 499.467 125.918 500.26 126.277C501.183 126.693 502.096 127.127 503 127.576C506.578 129.36 510.006 131.396 513.258 133.664C513.292 133.685 513.323 133.71 513.356 133.731C513.575 133.882 513.793 134.036 514.008 134.187C514.559 134.58 515.103 134.98 515.641 135.383C518.518 137.546 521.248 139.896 523.812 142.413C523.852 142.456 523.895 142.493 523.935 142.532C523.996 142.594 524.055 142.652 524.116 142.714C525.699 144.286 527.218 145.923 528.669 147.621C529.284 148.337 529.886 149.073 530.477 149.811C532.865 152.81 535.048 155.979 537 159.298C536.542 159.353 536.084 159.406 535.626 159.467H535.623C534.227 159.649 532.18 159.984 532.536 159.923C530.916 157.308 529.145 154.794 527.236 152.398L527.166 152.312C527.147 152.287 527.129 152.266 527.11 152.244C523.046 147.165 518.355 142.615 513.151 138.706C508.032 134.86 502.425 131.633 496.433 129.141C496.384 129.123 496.332 129.098 496.279 129.08C490.518 126.696 484.407 124.995 478.043 124.063C477.668 124.007 477.293 123.955 476.918 123.906C476.869 123.9 476.817 123.893 476.765 123.887H476.768C473.5 123.466 470.17 123.244 466.792 123.244C463.413 123.244 460.081 123.466 456.813 123.887H456.816C456.758 123.893 456.699 123.9 456.644 123.909C449.881 124.798 443.394 126.56 437.301 129.08C435.611 129.778 433.954 130.535 432.327 131.344C429.004 133.005 425.819 134.894 422.788 137.001C422.601 137.131 422.416 137.263 422.229 137.395C422.035 137.53 421.841 137.672 421.648 137.81C421.239 138.106 420.833 138.404 420.43 138.706C415.177 142.655 410.439 147.258 406.348 152.401C404.435 154.797 402.665 157.314 401.048 159.926C401.407 159.987 399.36 159.649 397.961 159.47H397.958C397.5 159.409 397.042 159.357 396.581 159.301C398.536 155.982 400.716 152.813 403.104 149.814Z" fill="#9F1731"/>
<path d="M466.792 138.946C487.26 138.946 505.407 148.943 516.597 164.325C516.083 164.522 515.57 164.728 515.06 164.937C514.254 165.272 513.455 165.617 512.662 165.977C502.173 152.072 485.538 143.092 466.792 143.092C448.046 143.092 431.411 152.075 420.922 165.977C421.116 166.063 421.297 166.177 421.494 166.269C420.51 165.817 419.53 165.352 418.524 164.937C418.017 164.728 417.504 164.522 416.987 164.325V164.322C428.177 148.943 446.324 138.946 466.792 138.946Z" fill="#9F1731"/>
<path d="M466.792 158.797C479.703 158.797 491.262 164.672 498.914 173.889C498.364 174.279 497.82 174.682 497.282 175.085C496.476 175.685 495.363 176.568 495.594 176.387C488.692 168.164 478.357 162.947 466.792 162.947C455.224 162.947 444.888 168.164 437.987 176.387C438.153 176.519 437.04 175.639 436.302 175.085C435.761 174.682 435.217 174.279 434.67 173.889C442.322 164.672 453.877 158.797 466.792 158.797Z" fill="#9F1731"/>
<path d="M452.039 190.661C452.039 190.661 452.039 190.657 452.039 190.661C452.294 190.99 452.359 191.076 452.039 190.661Z" fill="#9F1731"/>
<path d="M481.539 190.657C481.539 190.661 481.542 190.661 481.539 190.657C481.21 191.091 481.277 191.002 481.539 190.657Z" fill="#9F1731"/>
<path d="M466.792 178.645C473.915 178.645 480.254 182.047 484.25 187.32C483.635 188.037 483.033 188.769 482.443 189.51C482.052 190.002 481.742 190.399 481.542 190.658C478.351 185.914 472.946 182.792 466.798 182.792H466.795C460.647 182.792 455.236 185.911 452.045 190.658C451.845 190.399 451.532 190.002 451.144 189.51C450.554 188.769 449.952 188.037 449.337 187.32C453.33 182.05 459.666 178.645 466.792 178.645Z" fill="#9F1731"/>
<rect width="140.419" height="71.8591" fill="black" fill-opacity="0" transform="translate(378.36 119.091) scale(-1 1)"/>
<path d="M244.468 149.814C245.055 149.076 245.657 148.34 246.275 147.624C249.691 143.625 253.493 139.961 257.616 136.691C258.175 136.248 258.732 135.817 259.3 135.386C259.838 134.983 260.386 134.583 260.933 134.19C265.925 130.627 271.336 127.616 277.078 125.244C277.589 125.028 278.102 124.822 278.616 124.626C284.644 122.275 291.02 120.626 297.645 119.768C298.103 119.71 298.561 119.654 299.022 119.605C302.016 119.27 305.063 119.091 308.152 119.091C311.239 119.091 314.285 119.27 317.279 119.605C317.741 119.654 318.199 119.71 318.657 119.768C325.282 120.623 331.657 122.275 337.686 124.626C338.202 124.822 338.713 125.028 339.223 125.244C340.028 125.573 340.828 125.918 341.621 126.277C342.543 126.693 343.456 127.127 344.36 127.576C347.938 129.36 351.366 131.396 354.618 133.664C354.652 133.685 354.683 133.71 354.717 133.731C354.935 133.882 355.153 134.036 355.368 134.187C355.919 134.58 356.463 134.98 357.001 135.383C359.878 137.546 362.608 139.896 365.172 142.413C365.212 142.456 365.255 142.493 365.295 142.532C365.356 142.594 365.415 142.652 365.476 142.714C367.06 144.286 368.578 145.923 370.029 147.621C370.644 148.337 371.247 149.073 371.837 149.811C374.225 152.81 376.408 155.979 378.36 159.298C377.902 159.353 377.444 159.406 376.986 159.467H376.983C375.587 159.649 373.54 159.984 373.897 159.923C372.276 157.308 370.506 154.794 368.597 152.398L368.526 152.312C368.507 152.287 368.489 152.266 368.471 152.244C364.407 147.165 359.715 142.615 354.511 138.706C349.392 134.86 343.785 131.633 337.793 129.141C337.744 129.123 337.692 129.098 337.64 129.08C331.879 126.696 325.767 124.995 319.404 124.063C319.029 124.007 318.654 123.955 318.279 123.906C318.229 123.9 318.177 123.893 318.125 123.887H318.128C314.86 123.466 311.531 123.244 308.152 123.244C304.774 123.244 301.441 123.466 298.173 123.887H298.177C298.118 123.893 298.06 123.9 298.004 123.909C291.241 124.798 284.755 126.56 278.662 129.08C276.971 129.778 275.314 130.535 273.688 131.344C270.364 133.005 267.18 134.894 264.148 137.001C263.961 137.131 263.776 137.263 263.589 137.395C263.395 137.53 263.199 137.672 263.008 137.81C262.599 138.106 262.19 138.404 261.791 138.706C256.537 142.655 251.8 147.258 247.711 152.401C245.796 154.797 244.028 157.314 242.408 159.926C242.768 159.987 240.72 159.649 239.321 159.47H239.318C238.86 159.409 238.402 159.357 237.941 159.301C239.899 155.982 242.079 152.813 244.468 149.814Z" fill="#9F1731"/>
<path d="M308.152 138.946C328.62 138.946 346.767 148.943 357.957 164.325C357.444 164.522 356.93 164.728 356.42 164.937C355.614 165.272 354.815 165.617 354.022 165.977C343.533 152.072 326.899 143.092 308.152 143.092C289.406 143.092 272.772 152.075 262.282 165.977C262.476 166.063 262.658 166.177 262.854 166.269C261.871 165.817 260.89 165.352 259.885 164.937C259.377 164.728 258.864 164.522 258.348 164.325L258.351 164.322C269.538 148.943 287.684 138.946 308.152 138.946Z" fill="#9F1731"/>
<path d="M308.152 158.797C321.064 158.797 332.623 164.672 340.274 173.889C339.724 174.279 339.18 174.682 338.642 175.085C337.836 175.685 336.724 176.568 336.954 176.387C330.053 168.164 319.717 162.947 308.152 162.947C296.584 162.947 286.249 168.164 279.347 176.387C279.513 176.519 278.4 175.639 277.663 175.085C277.121 174.682 276.577 174.279 276.03 173.889C283.682 164.672 295.238 158.797 308.152 158.797Z" fill="#9F1731"/>
<path d="M293.399 190.661C293.399 190.661 293.399 190.657 293.399 190.661C293.654 190.99 293.719 191.076 293.399 190.661Z" fill="#9F1731"/>
<path d="M322.899 190.657C322.899 190.661 322.902 190.661 322.899 190.657C322.57 191.091 322.638 191.002 322.899 190.657Z" fill="#9F1731"/>
<path d="M308.152 178.645C315.275 178.645 321.614 182.047 325.61 187.32C324.996 188.037 324.393 188.769 323.803 189.51C323.412 190.002 323.102 190.399 322.902 190.658C319.711 185.914 314.307 182.792 308.158 182.792H308.155C302.007 182.792 296.596 185.911 293.405 190.658C293.206 190.399 292.892 190.002 292.505 189.51C291.914 188.769 291.312 188.037 290.697 187.32C294.69 182.05 301.026 178.645 308.152 178.645Z" fill="#9F1731"/>
<rect width="140.422" height="84.2064" fill="black" fill-opacity="0" transform="translate(140.422 79.3982) scale(-1 1)"/>
<path d="M134.886 120.438C134.323 120.54 133.767 120.651 133.207 120.765C133.767 120.654 134.326 120.54 134.886 120.438Z" fill="#9F1731"/>
<path d="M6.52643 110.118C7.1136 109.376 7.71925 108.647 8.33409 107.927C12.2168 103.387 16.5852 99.2831 21.3625 95.69C21.9035 95.287 22.4476 94.8871 22.9948 94.4964C27.2771 91.4417 31.8638 88.79 36.7026 86.5997C37.508 86.2367 38.3196 85.8829 39.1404 85.5445C39.6507 85.3353 40.1672 85.1293 40.6775 84.9293C45.7622 82.9482 51.0959 81.4593 56.6202 80.5303C57.6439 80.358 58.6737 80.2042 59.7097 80.0719C60.1678 80.0134 60.6258 79.958 61.0869 79.9088C63.5924 79.6289 66.1409 79.4597 68.7139 79.4105C69.212 79.4013 69.713 79.3982 70.2111 79.3982C73.3006 79.3982 76.344 79.5735 79.3414 79.9088C79.7994 79.958 80.2636 80.0134 80.7155 80.0719L80.7555 80.075C87.3711 80.9302 93.7347 82.5852 99.7477 84.9293C100.264 85.1293 100.775 85.3353 101.285 85.5445C107.03 87.9194 112.441 90.9341 117.43 94.4964C117.981 94.8871 118.522 95.2871 119.063 95.6931V95.69C123.843 99.2831 128.215 103.387 132.091 107.927C132.706 108.647 133.309 109.376 133.899 110.118C136.287 113.114 138.467 116.283 140.422 119.605C139.964 119.657 139.503 119.709 139.045 119.771C137.646 119.953 136.266 120.186 134.886 120.439C135.242 120.374 135.593 120.291 135.955 120.229C134.338 117.612 132.565 115.101 130.659 112.702C126.598 107.604 121.906 103.039 116.711 99.1139C116.665 99.0801 116.619 99.0432 116.573 99.0094H116.57C111.411 95.1302 105.749 91.8786 99.7017 89.3806C93.5533 86.8397 87.0114 85.0616 80.1898 84.188C80.1714 84.1849 80.1591 84.1818 80.1407 84.1818C76.8851 83.7665 73.5711 83.545 70.2111 83.545C66.851 83.545 63.5401 83.7665 60.2845 84.1818C60.2661 84.1818 60.2507 84.1849 60.2323 84.188C54.3145 84.9478 48.6119 86.3843 43.189 88.4085C42.3959 88.7038 41.609 89.0115 40.8281 89.3345C40.7882 89.3499 40.7574 89.3653 40.7205 89.3806C35.4729 91.5463 30.5204 94.2781 25.9276 97.4958C25.2605 97.9665 24.5996 98.4433 23.9479 98.9325C23.911 98.9571 23.8802 98.9847 23.8463 99.0094C20.9689 101.172 18.2514 103.528 15.6998 106.063C15.2448 106.522 14.7837 106.986 14.338 107.457C14.3195 107.475 14.3072 107.494 14.2888 107.509C14.0306 107.78 13.7784 108.051 13.5264 108.321C13.4188 108.438 13.3111 108.552 13.2066 108.669C13.0406 108.85 12.8808 109.032 12.7147 109.213C12.6348 109.306 12.5426 109.401 12.4627 109.493C11.5343 110.539 10.6336 111.607 9.76357 112.702C7.85451 115.098 6.08376 117.612 4.4606 120.229C4.8172 120.291 5.16457 120.371 5.5181 120.436C4.15009 120.186 2.76981 119.953 1.37413 119.771C0.916077 119.709 0.454971 119.657 0 119.605C1.95517 116.283 4.1378 113.114 6.52643 110.118Z" fill="#9F1731"/>
<path d="M16.1671 123.118C17.5966 123.582 19.0138 124.081 20.4064 124.619C19.0138 124.081 17.5966 123.586 16.1671 123.118Z" fill="#9F1731"/>
<path d="M11.7772 121.826C12.7578 122.087 13.7262 122.374 14.6915 122.666C13.7231 122.374 12.7578 122.084 11.7772 121.826Z" fill="#9F1731"/>
<path d="M10.0956 121.411C10.6582 121.546 11.2176 121.681 11.7771 121.829C11.2176 121.681 10.6551 121.546 10.0956 121.411Z" fill="#9F1731"/>
<path d="M5.52118 120.436C6.09605 120.54 6.66172 120.654 7.23352 120.768C6.6648 120.654 6.09605 120.54 5.52118 120.436Z" fill="#9F1731"/>
<path d="M7.23352 120.771C8.19574 120.965 9.14566 121.18 10.0956 121.411C9.14566 121.18 8.19574 120.965 7.23352 120.771Z" fill="#9F1731"/>
<path d="M14.6915 122.669C15.1833 122.819 15.6814 122.958 16.1671 123.118C15.6814 122.958 15.1833 122.819 14.6915 122.669Z" fill="#9F1731"/>
<path d="M133.21 120.764C132.239 120.961 131.27 121.18 130.314 121.413C131.27 121.18 132.236 120.964 133.21 120.764Z" fill="#9F1731"/>
<path d="M81.0629 80.1149L80.7555 80.078L80.7432 80.075L81.0629 80.1149Z" fill="#9F1731"/>
<path d="M125.709 122.675C125.227 122.826 124.741 122.961 124.261 123.118C124.744 122.961 125.227 122.826 125.709 122.675Z" fill="#9F1731"/>
<path d="M128.66 121.823C127.667 122.084 126.684 122.376 125.709 122.672C126.687 122.376 127.667 122.087 128.66 121.823Z" fill="#9F1731"/>
<path d="M130.311 121.414C129.758 121.546 129.208 121.678 128.66 121.823C129.211 121.681 129.761 121.549 130.311 121.414Z" fill="#9F1731"/>
<path d="M120.019 124.628C119.502 124.825 118.992 125.031 118.482 125.241C117.661 125.582 116.849 125.933 116.044 126.299C116.056 126.293 116.069 126.286 116.081 126.28C105.598 112.376 88.9635 103.396 70.2141 103.396C51.4678 103.396 34.8365 112.379 24.3474 126.28C23.5512 125.92 22.752 125.576 21.9466 125.241C21.4362 125.031 20.9259 124.825 20.4095 124.628C31.6025 109.247 49.7463 99.2493 70.2141 99.2493C90.682 99.2493 108.826 109.247 120.019 124.625C121.411 124.084 122.832 123.586 124.264 123.121C122.832 123.586 121.411 124.084 120.019 124.625C120.019 124.625 120.019 124.625 120.019 124.628Z" fill="#9F1731"/>
<path d="M103.277 138.638L103.194 138.702C100.768 140.523 98.4566 142.483 96.2709 144.566C98.4566 142.48 100.768 140.523 103.194 138.702C103.222 138.681 103.249 138.662 103.277 138.638Z" fill="#9F1731"/>
<path d="M70.2111 119.094C83.1257 119.094 94.6815 124.97 102.333 134.193C101.78 134.583 101.242 134.98 100.701 135.389C99.9598 135.949 99.2466 136.537 98.5273 137.121C98.6964 136.983 98.847 136.826 99.0161 136.69C92.1145 128.468 81.7823 123.244 70.2111 123.244C58.6429 123.244 48.3076 128.468 41.4091 136.69C41.9871 137.149 42.5435 137.638 43.1092 138.115C41.9994 137.183 40.8804 136.26 39.7214 135.389C39.1834 134.986 38.6393 134.583 38.089 134.193C45.7406 124.97 57.2964 119.091 70.2111 119.094Z" fill="#9F1731"/>
<path d="M60.2354 163.58L60.0755 163.605C60.1001 163.599 60.1247 163.595 60.1432 163.592L60.2354 163.58Z" fill="#9F1731"/>
<path d="M51.3172 152.401L51.1942 152.241C51.2157 152.266 51.2342 152.29 51.2526 152.309L51.3172 152.401Z" fill="#9F1731"/>
<path d="M80.3405 163.605C80.2913 163.595 80.2391 163.586 80.1837 163.58L80.0392 163.562L80.1898 163.58L80.3405 163.605Z" fill="#9F1731"/>
<path d="M70.2111 138.942C77.337 138.942 83.6728 142.351 87.6723 147.621C87.0575 148.34 86.455 149.072 85.8648 149.814C84.9671 150.937 84.1309 152.112 83.2917 153.287C83.8481 152.509 84.38 151.718 84.9641 150.961C81.77 146.215 76.3594 143.086 70.2111 143.086C64.0627 143.086 58.6522 146.215 55.4581 150.967C56.0361 151.712 56.5649 152.493 57.1151 153.262C56.282 152.096 55.452 150.931 54.5574 149.814C53.9702 149.072 53.3646 148.34 52.7498 147.621C56.7493 142.351 63.0882 138.942 70.2111 138.942Z" fill="#9F1731"/>
<rect width="140.425" height="71.8591" fill="black" fill-opacity="0" transform="translate(219.754 119.091) scale(-1 1)"/>
<path d="M85.8648 149.814C86.452 149.076 87.0575 148.34 87.6723 147.624C91.0878 143.625 94.8906 139.961 99.0131 136.691C99.5726 136.248 100.132 135.817 100.701 135.386C101.239 134.983 101.786 134.583 102.333 134.19C107.323 130.627 112.733 127.616 118.479 125.244C118.989 125.028 119.499 124.822 120.016 124.626C126.044 122.275 132.42 120.626 139.042 119.768C139.497 119.71 139.958 119.654 140.416 119.605C143.413 119.27 146.46 119.091 149.549 119.091C152.636 119.091 155.682 119.27 158.677 119.605C159.138 119.654 159.596 119.71 160.054 119.768C166.679 120.623 173.055 122.275 179.083 124.626C179.599 124.822 180.11 125.028 180.62 125.244C181.426 125.573 182.222 125.918 183.015 126.277C183.94 126.693 184.853 127.127 185.754 127.576C189.332 129.36 192.76 131.396 196.016 133.664C196.049 133.685 196.08 133.71 196.111 133.731C196.332 133.882 196.55 134.036 196.766 134.187C197.316 134.58 197.857 134.98 198.398 135.383C201.275 137.546 204.002 139.896 206.566 142.413C206.606 142.456 206.649 142.493 206.689 142.532C206.751 142.594 206.809 142.652 206.87 142.714C208.457 144.286 209.975 145.923 211.423 147.621C212.038 148.337 212.641 149.073 213.231 149.811C215.62 152.81 217.802 155.979 219.754 159.298C219.299 159.353 218.838 159.406 218.38 159.467C216.984 159.649 214.937 159.984 215.294 159.923C213.674 157.308 211.9 154.794 209.991 152.398L209.92 152.312C209.902 152.287 209.883 152.266 209.865 152.244C205.801 147.165 201.109 142.615 195.905 138.706C190.786 134.86 185.179 131.633 179.188 129.141C179.135 129.123 179.086 129.098 179.031 129.08C173.273 126.696 167.161 124.995 160.795 124.063C160.42 124.007 160.045 123.955 159.67 123.906C159.617 123.9 159.571 123.893 159.516 123.887H159.519C156.251 123.466 152.922 123.244 149.543 123.244C146.165 123.244 142.829 123.466 139.564 123.887H139.568C139.509 123.893 139.451 123.9 139.395 123.909C132.632 124.798 126.143 126.56 120.053 129.08C118.362 129.778 116.705 130.535 115.079 131.344C111.755 133.005 108.571 134.894 105.536 137.001C105.349 137.131 105.164 137.263 104.977 137.395C104.783 137.53 104.59 137.672 104.396 137.81C103.987 138.106 103.581 138.404 103.179 138.706C97.9247 142.655 93.1875 147.258 89.0957 152.401C87.1836 154.797 85.4159 157.314 83.7959 159.926C84.1525 159.987 82.105 159.649 80.7063 159.47C80.2482 159.409 79.7871 159.357 79.3291 159.301C81.2965 155.982 83.4762 152.813 85.8648 149.814Z" fill="#9F1731"/>
<path d="M149.553 138.946C170.02 138.946 188.167 148.943 199.357 164.325C198.841 164.522 198.33 164.728 197.82 164.937C197.012 165.272 196.215 165.617 195.419 165.977C184.93 152.072 168.299 143.092 149.553 143.092C130.803 143.092 114.169 152.075 103.68 165.977C103.876 166.063 104.058 166.177 104.251 166.269C103.271 165.817 102.287 165.352 101.285 164.937C100.775 164.728 100.264 164.522 99.7477 164.325V164.322C110.938 148.943 129.085 138.946 149.553 138.946Z" fill="#9F1731"/>
<path d="M149.553 158.797C162.461 158.797 174.023 164.672 181.674 173.889C181.121 174.279 180.58 174.682 180.042 175.085C179.237 175.685 178.124 176.568 178.354 176.387C171.453 168.164 161.118 162.947 149.553 162.947C137.981 162.947 127.649 168.164 120.747 176.387C120.913 176.519 119.801 175.639 119.063 175.085C118.522 174.682 117.975 174.279 117.43 173.889C125.082 164.672 136.638 158.797 149.553 158.797Z" fill="#9F1731"/>
<path d="M134.8 190.661C135.055 190.99 135.119 191.076 134.8 190.661V190.661Z" fill="#9F1731"/>
<path d="M164.299 190.657C164.299 190.661 164.299 190.661 164.299 190.657C163.967 191.091 164.035 191.002 164.299 190.657Z" fill="#9F1731"/>
<path d="M149.553 178.645C156.672 178.645 163.014 182.047 167.008 187.32C166.396 188.037 165.79 188.769 165.2 189.51C164.81 190.002 164.502 190.399 164.299 190.658C161.108 185.914 155.701 182.792 149.553 182.792C143.404 182.792 137.994 185.911 134.8 190.658C134.603 190.399 134.289 190.002 133.899 189.51C133.312 188.769 132.706 188.037 132.091 187.32C136.091 182.05 142.427 178.645 149.553 178.645Z" fill="#9F1731"/>
</svg>
