<svg width="32" height="18" viewBox="0 0 32 18" fill="none" xmlns="http://www.w3.org/2000/svg">
<path d="M31.8302 16.2562C31.7915 16.1738 31.7553 16.1055 31.7219 16.0509C31.1667 15.065 30.1057 13.8549 28.5396 12.4203L28.5064 12.3875L28.49 12.3714L28.4731 12.3549H28.4563C27.7455 11.6868 27.2954 11.2377 27.1069 11.0077C26.7621 10.5698 26.685 10.1264 26.8733 9.67701C27.0066 9.33768 27.5068 8.62073 28.373 7.52541C28.8285 6.94499 29.1894 6.47978 29.4557 6.12918C31.3774 3.61037 32.2107 2.00092 31.955 1.29995L31.8557 1.13617C31.7891 1.03755 31.6171 0.947359 31.3396 0.865096C31.0616 0.782957 30.7063 0.769452 30.2731 0.824088L25.4747 0.856796C25.397 0.829664 25.286 0.832142 25.1414 0.865096C24.9971 0.898051 24.9248 0.914527 24.9248 0.914527L24.8412 0.955658L24.7749 1.00509C24.7195 1.0378 24.6583 1.09528 24.5917 1.17742C24.5253 1.25931 24.4698 1.35533 24.4254 1.46485C23.903 2.78985 23.3092 4.02181 22.6425 5.16061C22.2315 5.83965 21.8543 6.42812 21.5093 6.92641C21.1651 7.42457 20.8764 7.79153 20.6432 8.0268C20.4098 8.26219 20.1992 8.45087 20.0099 8.59335C19.821 8.73594 19.6768 8.79615 19.577 8.7741C19.4769 8.75205 19.3826 8.73024 19.2935 8.70832C19.1381 8.6097 19.013 8.47565 18.9189 8.3058C18.8242 8.13607 18.7605 7.92248 18.7273 7.66516C18.6941 7.40759 18.6745 7.18608 18.6688 6.99987C18.6637 6.81391 18.6661 6.55077 18.6773 6.21132C18.6888 5.87173 18.6941 5.64192 18.6941 5.5215C18.6941 5.10535 18.7023 4.65365 18.7187 4.16639C18.7356 3.67901 18.7491 3.29297 18.7605 3.00851C18.7719 2.72382 18.7772 2.42252 18.7772 2.10499C18.7772 1.78746 18.7576 1.53831 18.7187 1.35756C18.6804 1.17705 18.6217 1.00175 18.5442 0.831893C18.4664 0.662164 18.3523 0.53084 18.2026 0.437675C18.0527 0.344634 17.8664 0.270671 17.6446 0.215788C17.0557 0.0844648 16.3062 0.013353 15.3951 0.00232677C13.3293 -0.0194778 12.0018 0.111969 11.4131 0.396668C11.1799 0.516965 10.9688 0.681367 10.78 0.889254C10.58 1.13022 10.5521 1.26179 10.6965 1.28347C11.363 1.38196 11.835 1.61736 12.1127 1.98964L12.2127 2.18688C12.2906 2.32923 12.3683 2.58122 12.4461 2.94261C12.5237 3.30387 12.5739 3.70366 12.5959 4.14136C12.6513 4.94095 12.6513 5.62532 12.5959 6.19471C12.5403 6.76424 12.4878 7.20764 12.4376 7.52529C12.3875 7.84282 12.3126 8.10027 12.2127 8.29725C12.1127 8.49436 12.0461 8.61478 12.0127 8.65864C11.9794 8.70237 11.9516 8.72987 11.9295 8.74078C11.7852 8.79529 11.635 8.82316 11.4796 8.82316C11.3239 8.82316 11.1353 8.74635 10.9131 8.5931C10.6911 8.43972 10.4606 8.22899 10.2218 7.96077C9.98296 7.6923 9.71367 7.31728 9.41359 6.83547C9.11389 6.35366 8.80275 5.78427 8.48067 5.12728L8.21415 4.6508C8.04752 4.34429 7.81994 3.89792 7.53117 3.31217C7.24215 2.72617 6.98681 2.15937 6.76476 1.61178C6.67592 1.38184 6.54259 1.20678 6.36491 1.08624L6.28147 1.03681C6.22605 0.993073 6.13708 0.946614 6.01494 0.897182C5.89267 0.84775 5.76512 0.812319 5.63179 0.790514L1.06662 0.82322C0.600161 0.82322 0.283618 0.927413 0.116865 1.13555L0.0501394 1.23392C0.016839 1.2888 0 1.37626 0 1.49693C0 1.61735 0.0332992 1.76528 0.100026 1.94034C0.766537 3.4845 1.49123 4.97365 2.27423 6.40818C3.05723 7.8427 3.73769 8.99822 4.31511 9.87387C4.89265 10.7499 5.48137 11.5769 6.08116 12.3541C6.68094 13.1317 7.07804 13.6301 7.27231 13.8489C7.46683 14.0683 7.61964 14.2322 7.7306 14.3417L8.14717 14.7359C8.41382 14.9988 8.80526 15.3136 9.32173 15.6803C9.83833 16.0473 10.4103 16.4087 11.0378 16.7649C11.6655 17.1204 12.3957 17.4107 13.2288 17.6351C14.0618 17.8597 14.8726 17.9499 15.6613 17.9064H17.5773C17.9659 17.8732 18.2603 17.7528 18.4604 17.5449L18.5267 17.4625C18.5712 17.3972 18.6131 17.2956 18.6515 17.1591C18.6906 17.0222 18.7098 16.8714 18.7098 16.7074C18.6985 16.2365 18.7348 15.8122 18.8179 15.4345C18.9008 15.0569 18.9956 14.7722 19.1015 14.5803C19.2073 14.3888 19.3267 14.2271 19.4595 14.096C19.5928 13.9647 19.6875 13.8852 19.7434 13.8578C19.7985 13.8302 19.8428 13.8116 19.8762 13.8003C20.1427 13.7127 20.4564 13.7976 20.8178 14.0552C21.1788 14.3125 21.5175 14.6304 21.8343 15.0079C22.1508 15.3859 22.5312 15.8099 22.9754 16.2806C23.4199 16.7516 23.8085 17.1017 24.1416 17.3319L24.4747 17.529C24.6971 17.6607 24.9857 17.781 25.3412 17.8905C25.6961 18.0001 26.0071 18.0273 26.274 17.9727L30.5391 17.9071C30.9609 17.9071 31.2892 17.8381 31.5221 17.7016C31.7553 17.5648 31.8939 17.4139 31.9385 17.2499C31.9831 17.0856 31.9855 16.8994 31.9469 16.691C31.908 16.4835 31.8689 16.3383 31.8302 16.2562Z" fill="#B11D38"/>
</svg>
