<svg width="33" height="23" viewBox="0 0 33 23" fill="none" xmlns="http://www.w3.org/2000/svg">
<path fill-rule="evenodd" clip-rule="evenodd" d="M16.5173 0.00736197C19.767 0.106982 23.0158 0.190662 26.2646 0.316581C27.2607 0.354835 28.2672 0.436921 29.2432 0.627394C30.7581 0.923862 31.7686 1.8834 32.2714 3.32828C32.6599 4.44641 32.7766 5.62511 32.8558 6.79743C33.0501 9.6585 33.0269 12.5236 32.911 15.3854C32.8526 16.812 32.7343 18.2425 32.3002 19.6125C31.7758 21.2686 30.6182 22.2743 28.8875 22.5078C27.6132 22.68 26.3246 22.7629 25.0399 22.8258C20.205 23.0625 15.3678 23.0187 10.5329 22.9238C8.49121 22.884 6.4503 22.7142 4.41339 22.5541C2.72822 22.4194 1.48913 21.5618 0.842398 19.9966C0.576193 19.3511 0.450685 18.6346 0.349159 17.9381C-0.0937174 14.9025 -0.0225696 11.8469 0.066965 8.7962C0.106936 7.45332 0.254028 6.11205 0.408315 4.77635C0.507443 3.92121 0.713692 3.08282 1.21812 2.34882C2.01834 1.18447 3.14232 0.626597 4.5309 0.48952C8.51759 0.0974176 12.5187 0.00895588 16.5173 0.00736197C16.5181 -0.0181406 16.5165 0.0328646 16.5173 0.00736197ZM12.2589 16.6287C15.7531 14.822 19.213 13.0328 22.7264 11.2166C19.2026 9.38435 15.7491 7.58801 12.2589 5.77334C12.2589 9.41224 12.2589 12.989 12.2589 16.6287Z" fill="white"/>
</svg>
