<?xml version="1.0" encoding="utf-8"?>
<!-- Generator: Adobe Illustrator 16.0.0, SVG Export Plug-In . SVG Version: 6.00 Build 0)  -->
<!DOCTYPE svg PUBLIC "-//W3C//DTD SVG 1.1//EN" "http://www.w3.org/Graphics/SVG/1.1/DTD/svg11.dtd">
<svg version="1.1" id="Layer_1" xmlns="http://www.w3.org/2000/svg" xmlns:xlink="http://www.w3.org/1999/xlink" x="0px" y="0px"
	 width="50px" height="50px" viewBox="0 0 50 50" enable-background="new 0 0 50 50" xml:space="preserve" fill="#b11d38">
<path d="M25.332,12.938c-1.097-0.882-1.435-2.239-0.998-3.278c0.466-1.11,1.321-1.199,1.552-1.278
	c0.127,0.367,0.171,0.763,0.298,1.13c0.258-0.267,0.496-0.568,0.754-0.835c0.27,0.2,0.793,0.548,0.884,1.271
	C27.934,10.833,27.025,12.517,25.332,12.938"/>
<path d="M25.934,13.771c0.512-1.368,1.754-2.14,2.938-2.046c1.266,0.101,1.642,0.916,1.799,1.118
	c-0.323,0.243-0.705,0.415-1.029,0.659c0.354,0.168,0.735,0.305,1.088,0.473c-0.109,0.331-0.281,0.959-0.973,1.284
	C28.909,15.655,26.922,15.304,25.934,13.771"/>
<path d="M25.473,14.448c1.448,0.169,2.493,1.184,2.683,2.349c0.204,1.244-0.495,1.799-0.654,1.999
	c-0.313-0.254-0.57-0.581-0.884-0.835c-0.079,0.38-0.121,0.78-0.2,1.16c-0.347-0.027-0.998-0.044-1.476-0.633
	C24.355,17.765,24.222,15.766,25.473,14.448"/>
<path d="M24.428,14.183c0.341,1.386-0.222,2.688-1.215,3.257c-1.059,0.607-1.802,0.152-2.038,0.074
	c0.124-0.373,0.333-0.72,0.456-1.094c-0.373,0.056-0.749,0.153-1.122,0.209c-0.094-0.327-0.301-0.93,0.071-1.568
	C21.035,14.278,22.804,13.48,24.428,14.183"/>
<path d="M24.31,13.234c-1.253,0.785-2.714,0.652-3.595-0.14c-0.94-0.845-0.733-1.724-0.733-1.98c0.406,0,0.816,0.094,1.223,0.095
	c-0.176-0.348-0.393-0.687-0.568-1.036c0.292-0.198,0.817-0.597,1.565-0.438C23.12,9.93,24.477,11.411,24.31,13.234"/>
<path d="M43.487,14.502c-0.74-1.061-0.687-2.342-0.033-3.145c0.697-0.856,1.473-0.714,1.697-0.725
	c0.018,0.355-0.047,0.716-0.029,1.072c0.295-0.168,0.583-0.373,0.879-0.541c0.186,0.246,0.557,0.688,0.45,1.348
	C46.32,13.32,45.087,14.569,43.487,14.502"/>
<path d="M43.801,15.391c0.805-1.073,2.098-1.432,3.116-1.043c1.089,0.416,1.21,1.229,1.296,1.447
	c-0.348,0.131-0.728,0.185-1.077,0.315c0.269,0.24,0.568,0.458,0.837,0.698c-0.183,0.263-0.496,0.772-1.188,0.878
	C45.936,17.818,44.275,16.997,43.801,15.391"/>
<path d="M43.221,15.869c1.231,0.523,1.89,1.687,1.758,2.761c-0.143,1.147-0.902,1.457-1.093,1.591
	c-0.211-0.304-0.353-0.66-0.563-0.964c-0.168,0.314-0.309,0.656-0.477,0.97c-0.297-0.113-0.866-0.296-1.135-0.938
	C41.381,18.501,41.778,16.707,43.221,15.869"/>
<path d="M42.369,15.366c-0.058,1.309-0.89,2.31-1.91,2.555c-1.09,0.261-1.627-0.332-1.814-0.46c0.205-0.297,0.479-0.549,0.684-0.846
	c-0.343-0.047-0.699-0.059-1.042-0.105c0.002-0.313-0.025-0.897,0.468-1.363C39.357,14.573,41.12,14.328,42.369,15.366"/>
<path d="M42.51,14.5c-1.306,0.368-2.559-0.126-3.13-1.051c-0.609-0.987-0.2-1.707-0.135-1.933c0.358,0.106,0.695,0.293,1.054,0.399
	c-0.064-0.352-0.169-0.707-0.233-1.059c0.308-0.099,0.873-0.315,1.491,0.018C42.314,11.282,43.127,12.937,42.51,14.5"/>
<path d="M32.843,29.944c0.743-0.726,1.767-0.852,2.488-0.44c0.771,0.439,0.761,1.073,0.799,1.249
	c-0.279,0.061-0.574,0.058-0.853,0.118c0.172,0.213,0.371,0.413,0.544,0.626c-0.171,0.18-0.472,0.532-1.009,0.534
	C34.153,32.034,33.001,31.221,32.843,29.944"/>
<path d="M32.181,30.31c0.956,0.497,1.411,1.475,1.236,2.334c-0.185,0.917-0.814,1.12-0.976,1.217
	c-0.15-0.258-0.242-0.554-0.393-0.811c-0.155,0.243-0.288,0.51-0.441,0.754c-0.233-0.11-0.678-0.291-0.854-0.825
	C30.538,32.322,30.971,30.898,32.181,30.31"/>
<path d="M31.726,29.913c-0.253,1.046-1.088,1.72-1.958,1.757c-0.929,0.039-1.272-0.522-1.405-0.656
	c0.214-0.207,0.477-0.366,0.69-0.574c-0.271-0.09-0.561-0.156-0.833-0.248c0.051-0.252,0.121-0.727,0.596-1.023
	C29.396,28.802,30.872,28.881,31.726,29.913"/>
<path d="M32.012,29.172c-1.045,0.127-1.947-0.4-2.276-1.177c-0.351-0.829,0.048-1.334,0.126-1.499
	c0.262,0.123,0.497,0.307,0.761,0.43c-0.009-0.276-0.047-0.562-0.054-0.839c0.247-0.039,0.707-0.139,1.143,0.19
	C32.243,26.68,32.671,28.046,32.012,29.172"/>
<path d="M32.717,29.17c-0.464-0.987-0.237-2.046,0.42-2.619c0.701-0.613,1.327-0.385,1.515-0.361
	c-0.036,0.298-0.141,0.589-0.177,0.887c0.27-0.098,0.537-0.228,0.808-0.324c0.119,0.231,0.365,0.65,0.183,1.185
	C35.24,28.59,34.036,29.453,32.717,29.17"/>
<path d="M21.752,32.184c0.355-0.598,0.995-0.857,1.533-0.716c0.575,0.151,0.678,0.563,0.733,0.67
	c-0.171,0.088-0.361,0.137-0.531,0.225c0.148,0.107,0.313,0.203,0.459,0.31c-0.079,0.146-0.212,0.426-0.559,0.521
	C22.962,33.309,22.076,32.982,21.752,32.184"/>
<path d="M21.387,32.535c0.704,0.155,1.168,0.709,1.204,1.295c0.039,0.624-0.333,0.865-0.42,0.956
	c-0.141-0.141-0.252-0.316-0.395-0.457c-0.058,0.185-0.097,0.38-0.155,0.564c-0.169-0.031-0.488-0.07-0.695-0.387
	C20.673,34.12,20.706,33.125,21.387,32.535"/>
<path d="M21.023,32.357c0.018,0.72-0.405,1.301-0.961,1.476c-0.594,0.185-0.914-0.118-1.022-0.182
	c0.102-0.171,0.244-0.319,0.346-0.49c-0.192-0.012-0.389-0.005-0.581-0.017c-0.01-0.172-0.047-0.491,0.207-0.766
	C19.326,32.042,20.293,31.838,21.023,32.357"/>
<path d="M21.081,31.828c-0.654,0.264-1.329,0.078-1.676-0.367c-0.371-0.475-0.201-0.87-0.179-0.991
	c0.192,0.036,0.375,0.113,0.567,0.147c-0.054-0.178-0.127-0.356-0.18-0.533c0.154-0.069,0.434-0.212,0.771-0.075
	C20.799,30.177,21.312,30.986,21.081,31.828"/>
<path d="M21.537,31.705c-0.471-0.558-0.508-1.281-0.183-1.767c0.348-0.519,0.791-0.479,0.918-0.496
	c0.027,0.199,0.01,0.405,0.039,0.604c0.157-0.11,0.309-0.24,0.465-0.351c0.118,0.13,0.35,0.358,0.324,0.735
	C23.069,30.893,22.439,31.659,21.537,31.705"/>
<path d="M33.636,17.616c-0.056-0.488,0.193-0.907,0.557-1.057c0.389-0.161,0.621,0.027,0.699,0.063
	c-0.059,0.122-0.146,0.231-0.204,0.354c0.13-0.003,0.263-0.02,0.392-0.022c0.019,0.116,0.063,0.331-0.093,0.532
	C34.797,17.732,34.159,17.927,33.636,17.616"/>
<path d="M33.581,17.97c0.462-0.213,0.96-0.1,1.229,0.214c0.289,0.335,0.183,0.629,0.172,0.718c-0.14-0.019-0.277-0.07-0.416-0.089
	c0.045,0.128,0.106,0.256,0.152,0.384c-0.108,0.055-0.305,0.169-0.555,0.08C33.855,19.167,33.449,18.592,33.581,17.97"/>
<path d="M33.301,18.025c0.316,0.397,0.327,0.905,0.089,1.24c-0.255,0.358-0.564,0.324-0.652,0.335
	c-0.016-0.14,0.001-0.284-0.015-0.424c-0.113,0.075-0.222,0.164-0.334,0.239c-0.079-0.092-0.236-0.255-0.211-0.519
	C32.21,18.573,32.667,18.045,33.301,18.025"/>
<path d="M33.106,17.703c-0.256,0.427-0.714,0.611-1.1,0.509c-0.411-0.109-0.484-0.404-0.524-0.481
	c0.123-0.062,0.26-0.097,0.382-0.159c-0.105-0.078-0.223-0.146-0.329-0.224c0.057-0.104,0.154-0.304,0.402-0.371
	C32.242,16.895,32.877,17.13,33.106,17.703"/>
<path d="M33.31,17.439c-0.503-0.113-0.832-0.504-0.857-0.917c-0.024-0.44,0.242-0.607,0.305-0.67c0.101,0.1,0.18,0.223,0.28,0.324
	c0.042-0.13,0.071-0.267,0.113-0.396c0.12,0.022,0.349,0.053,0.495,0.275C33.826,16.328,33.799,17.028,33.31,17.439"/>
<path d="M18.688,23.686c-0.272-0.418-0.236-0.912,0.025-1.215c0.28-0.322,0.578-0.259,0.665-0.26
	c0.002,0.137-0.026,0.276-0.024,0.414c0.117-0.062,0.229-0.137,0.346-0.199c0.069,0.097,0.207,0.272,0.158,0.525
	C19.797,23.263,19.304,23.731,18.688,23.686"/>
<path d="M18.798,24.033c0.324-0.405,0.827-0.528,1.216-0.367c0.416,0.173,0.452,0.49,0.483,0.575
	c-0.136,0.047-0.283,0.063-0.419,0.109c0.1,0.096,0.214,0.184,0.314,0.279c-0.074,0.1-0.201,0.293-0.47,0.326
	C19.592,24.996,18.961,24.659,18.798,24.033"/>
<path d="M18.567,24.211c0.47,0.217,0.71,0.673,0.645,1.087c-0.068,0.441-0.366,0.552-0.441,0.602
	c-0.078-0.12-0.128-0.259-0.207-0.378c-0.068,0.118-0.126,0.249-0.196,0.368c-0.113-0.048-0.331-0.124-0.427-0.376
	C17.825,25.206,18,24.517,18.567,24.211"/>
<path d="M18.244,24.006c-0.038,0.505-0.371,0.882-0.769,0.964c-0.423,0.088-0.624-0.147-0.695-0.199
	c0.083-0.112,0.191-0.206,0.274-0.318c-0.131-0.022-0.27-0.031-0.401-0.053c0.005-0.121,0.002-0.347,0.198-0.521
	C17.091,23.665,17.775,23.591,18.244,24.006"/>
<path d="M18.31,23.674c-0.509,0.127-0.987-0.079-1.197-0.442c-0.223-0.388-0.057-0.662-0.028-0.748
	c0.137,0.044,0.265,0.121,0.401,0.166c-0.02-0.136-0.056-0.275-0.077-0.412c0.12-0.035,0.341-0.111,0.576,0.024
	C18.274,22.429,18.567,23.078,18.31,23.674"/>
<path d="M3.311,42.301c-0.612-0.325-1.492-1.437-1.505-1.519c-0.156-0.98,0.692-2.003,1.476-2.091
	c0.563-0.063,1.738-0.714,2.505-1.185c0.751-0.463,0.997,0.006,1.597-0.579c0.273-0.265,0.597-0.396,0.855-0.681
	c0.569-0.626,1.945-1.114,2.666-1.278c1.338-0.306,1.548-1.198,2.196-2.648c1.144-2.56,0.413-3.474,1.463-4.453
	c0.751-0.701,1.298-0.394,3.872-0.993c1.305-0.304,3.57-0.932,3.622-2.045c0.026-0.574,0.239-0.783-0.187-1.684
	c-0.947-2.006,1.731-5.365,1.961-5.254c0.109,0.053-0.195,0.951-0.44,1.507c-0.526,1.192-0.753,1.383-0.883,2.069
	c-0.197,1.055,0.167,2.104,1.124,2.326c0.651,0.15,0.901-0.342,2.145-0.68c1.315-0.358,1.715,0.009,2.83-0.172
	c1.78-0.291,1.816-1.262,3.588-1.95c2.252-0.874,3.154,0.515,5.413-0.361c1.975-0.764,3.011-2.336,3.125-2.238
	c0.125,0.106-0.76,2.237-2.718,3.15c-1.917,0.893-2.82-0.334-5.054,0.504c-1.742,0.654-1.577,1.547-3.522,2.217
	c-1.581,0.544-1.924,0.036-3.548,0.557c-1.218,0.391-1.376,0.985-2.494,1.549c-2.623,1.324,6.344,1.772,5.381,2.037
	c-1.822,0.498-6.662-0.589-7.698-0.041c-0.873,0.462-1.3,0.345-2.925,1.265c-1.84,1.041-2.542,1.67-2.747,2.771
	c-0.17,0.91-0.016,1.611-0.54,2.515c-0.374,0.647-3.782,3.11-5.016,3.908c-1.407,0.91-1.339,1.18-2.655,2.087
	C5.984,41.748,4.367,42.862,3.311,42.301"/>
</svg>
