<?xml version="1.0" encoding="utf-8"?>
<!-- Generator: Adobe Illustrator 16.0.0, SVG Export Plug-In . SVG Version: 6.00 Build 0)  -->
<!DOCTYPE svg PUBLIC "-//W3C//DTD SVG 1.1//EN" "http://www.w3.org/Graphics/SVG/1.1/DTD/svg11.dtd">
<svg version="1.1" id="Layer_1" xmlns="http://www.w3.org/2000/svg" xmlns:xlink="http://www.w3.org/1999/xlink" x="0px" y="0px"
	 width="50px" height="50px" viewBox="0 0 50 50" enable-background="new 0 0 50 50" xml:space="preserve" fill="#b11d38">
<g>
	<path d="M17.588,7.659c0.078-0.479-0.192-0.799-0.327-0.978c-0.215,0.123-0.423,0.271-0.638,0.393
		c-0.013-0.258,0.035-0.52,0.021-0.778c-0.162,0.007-0.725-0.095-1.231,0.526c-0.475,0.583-0.513,1.514,0.023,2.284
		C16.598,9.152,17.494,8.247,17.588,7.659z"/>
	<path d="M15.665,9.75c0.345,1.166,1.549,1.763,2.166,1.667c0.503-0.077,0.73-0.448,0.862-0.639
		c-0.194-0.173-0.412-0.332-0.606-0.506c0.253-0.095,0.529-0.133,0.782-0.229c-0.063-0.159-0.151-0.75-0.941-1.051
		C17.187,8.71,16.248,8.971,15.665,9.75z"/>
	<path d="M14.147,12.58c0.195,0.466,0.609,0.599,0.824,0.681c0.123-0.228,0.224-0.476,0.345-0.704c0.153,0.22,0.256,0.478,0.409,0.7
		c0.139-0.099,0.69-0.323,0.793-1.155c0.097-0.781-0.382-1.625-1.275-2.005C14.196,10.704,13.907,12.007,14.147,12.58z"/>
	<path d="M11.921,11.251c0.136,0.094,0.526,0.524,1.317,0.334c0.741-0.178,1.345-0.904,1.387-1.855
		C13.718,8.977,12.438,9.155,12,9.571c-0.358,0.339-0.337,0.762-0.339,0.989c0.249,0.034,0.508,0.043,0.757,0.077
		C12.269,10.853,12.07,11.036,11.921,11.251z"/>
	<path d="M14.727,9.103c0.448-1.135-0.142-2.336-0.692-2.632c-0.448-0.242-0.859-0.084-1.083-0.013
		C13,6.713,13.075,6.971,13.121,7.226c-0.259-0.077-0.503-0.213-0.763-0.29c-0.049,0.165-0.346,0.688,0.098,1.404
		C12.87,9.011,13.779,9.369,14.727,9.103z"/>
	<path d="M24.305,7.272c-0.033-0.337-0.266-0.506-0.385-0.603c-0.121,0.121-0.233,0.258-0.353,0.379
		c-0.053-0.172-0.069-0.357-0.121-0.529c-0.105,0.035-0.494,0.064-0.72,0.574C22.515,7.57,22.65,8.206,23.137,8.63
		C23.911,8.456,24.343,7.685,24.305,7.272z"/>
	<path d="M23.399,9.025c0.429,0.726,1.326,0.914,1.716,0.74c0.318-0.142,0.404-0.432,0.457-0.583
		c-0.158-0.083-0.329-0.151-0.487-0.235c0.15-0.108,0.326-0.184,0.475-0.293c-0.069-0.096-0.229-0.479-0.802-0.542
		C24.222,8.052,23.649,8.396,23.399,9.025z"/>
	<path d="M23.553,11.518c0.041-0.176,0.064-0.361,0.104-0.537c0.139,0.123,0.252,0.277,0.391,0.4c0.075-0.091,0.398-0.34,0.322-0.92
		c-0.072-0.544-0.533-1.029-1.188-1.127c-0.583,0.596-0.549,1.527-0.292,1.872C23.1,11.485,23.395,11.501,23.553,11.518z"/>
	<path d="M22.12,10.695c0.458-0.252,0.728-0.85,0.592-1.498c-0.729-0.348-1.541,0-1.757,0.358c-0.176,0.292-0.09,0.575-0.051,0.729
		c0.169-0.021,0.341-0.062,0.511-0.083c-0.061,0.171-0.159,0.33-0.221,0.502C21.3,10.742,21.632,10.964,22.12,10.695z"/>
	<path d="M22.67,8.754c0.098-0.845-0.499-1.551-0.912-1.654c-0.337-0.083-0.581,0.096-0.717,0.184
		c0.076,0.164,0.17,0.325,0.245,0.488c-0.185-0.005-0.369-0.054-0.553-0.059c-0.003,0.119-0.108,0.524,0.308,0.93
		C21.43,9.022,22.091,9.103,22.67,8.754z"/>
	<path d="M13.218,16.066c-0.075-0.275-0.297-0.383-0.413-0.446c-0.085,0.118-0.162,0.248-0.248,0.366
		c-0.069-0.136-0.107-0.288-0.177-0.423c-0.085,0.043-0.412,0.124-0.534,0.581c-0.113,0.427,0.091,0.936,0.566,1.219
		C13.048,17.107,13.31,16.405,13.218,16.066z"/>
	<path d="M14.258,18.024c0.25-0.163,0.284-0.417,0.308-0.551c-0.146-0.045-0.301-0.079-0.448-0.125
		c0.113-0.112,0.252-0.2,0.364-0.312c-0.072-0.07-0.262-0.366-0.759-0.337c-0.466,0.028-0.906,0.396-1.031,0.955
		C13.159,18.196,13.95,18.224,14.258,18.024z"/>
	<path d="M13.17,19.706c0.011-0.152,0.005-0.309,0.015-0.462c0.136,0.082,0.253,0.195,0.39,0.277c0.05-0.086,0.292-0.34,0.145-0.812
		c-0.137-0.442-0.599-0.779-1.17-0.767c-0.415,0.58-0.253,1.349,0.013,1.598C12.78,19.743,13.035,19.714,13.17,19.706z"/>
	<path d="M11.834,19.227c0.355-0.274,0.503-0.811,0.295-1.331c-0.669-0.185-1.313,0.221-1.447,0.549
		c-0.109,0.269,0.004,0.491,0.058,0.614c0.142-0.042,0.283-0.1,0.425-0.142c-0.028,0.151-0.091,0.297-0.118,0.45
		C11.143,19.384,11.456,19.521,11.834,19.227z"/>
	<path d="M10.628,17.675c0.385,0.26,0.96,0.232,1.404-0.141c-0.035-0.718-0.642-1.219-1.009-1.245
		c-0.299-0.021-0.481,0.163-0.584,0.255c0.087,0.126,0.189,0.246,0.278,0.371c-0.159,0.022-0.323,0.008-0.481,0.03
		C10.25,17.046,10.218,17.398,10.628,17.675z"/>
	<path d="M23.149,13.767c-0.049-0.156-0.063-0.324-0.112-0.48c-0.099,0.031-0.459,0.059-0.669,0.521
		c-0.196,0.433-0.07,1.008,0.383,1.392c0.717-0.157,1.119-0.856,1.082-1.23c-0.029-0.306-0.246-0.458-0.356-0.546
		C23.364,13.533,23.261,13.657,23.149,13.767z"/>
	<path d="M24.586,16.229c0.295-0.129,0.375-0.392,0.424-0.53c-0.146-0.075-0.304-0.136-0.452-0.212
		c0.139-0.099,0.302-0.167,0.441-0.266c-0.064-0.086-0.213-0.434-0.745-0.491c-0.498-0.053-1.029,0.257-1.262,0.827
		C23.393,16.215,24.225,16.386,24.586,16.229z"/>
	<path d="M23.136,17.816c0.037-0.16,0.06-0.328,0.098-0.487c0.128,0.11,0.234,0.252,0.362,0.362c0.07-0.082,0.371-0.308,0.299-0.834
		c-0.066-0.493-0.494-0.932-1.103-1.021c-0.543,0.54-0.51,1.383-0.271,1.695C22.716,17.786,22.991,17.801,23.136,17.816z"/>
	<path d="M21.805,17.071c0.425-0.228,0.677-0.77,0.55-1.358c-0.676-0.315-1.43,0-1.631,0.325c-0.164,0.265-0.083,0.521-0.048,0.66
		c0.157-0.019,0.317-0.056,0.476-0.075c-0.057,0.156-0.15,0.3-0.206,0.456C21.045,17.114,21.353,17.313,21.805,17.071z"/>
	<path d="M20.805,15.212c0.361,0.344,0.976,0.417,1.511,0.101c0.092-0.767-0.462-1.406-0.846-1.499
		c-0.314-0.075-0.54,0.087-0.666,0.167c0.07,0.149,0.158,0.294,0.228,0.443c-0.171-0.004-0.343-0.049-0.514-0.053
		C20.515,14.478,20.418,14.845,20.805,15.212z"/>
	<path d="M40.449,18.426c0.197-0.589-0.104-0.916-0.168-1.025c-0.173,0.099-0.326,0.238-0.5,0.337
		c-0.01-0.192,0.001-0.39-0.01-0.581c-0.172-0.014-0.494-0.058-0.775,0.192c-0.345,0.306-0.565,1.27-0.052,2.01
		C39.672,19.391,40.265,18.978,40.449,18.426z"/>
	<path d="M38.428,19.479c0.268-0.707,0.047-1.429-0.445-1.796c-0.525-0.392-0.949-0.203-1.079-0.178
		c0.043,0.205,0.132,0.401,0.175,0.606c-0.193-0.055-0.389-0.132-0.583-0.187c-0.07,0.167-0.218,0.468-0.06,0.83
		C36.63,19.197,37.521,19.737,38.428,19.479z"/>
	<path d="M36.735,20.873c-0.101,0.175-0.219,0.345-0.317,0.52c0.144,0.107,0.401,0.322,0.789,0.256
		c0.474-0.082,1.207-0.813,1.169-1.75c-0.62-0.428-1.373-0.39-1.843-0.002c-0.503,0.414-0.42,0.869-0.427,1
		C36.315,20.905,36.525,20.865,36.735,20.873z"/>
	<path d="M38.235,21.83c0.204,0.597,0.647,0.674,0.766,0.723c0.079-0.187,0.116-0.393,0.195-0.58
		c0.126,0.149,0.239,0.314,0.365,0.463c0.147-0.095,0.434-0.258,0.506-0.633c0.091-0.459-0.325-1.372-1.195-1.651
		C38.268,20.574,38.043,21.272,38.235,21.83z"/>
	<path d="M41.252,19.181c-0.423-0.236-1.454-0.123-2.012,0.642c0.22,0.731,0.833,1.178,1.445,1.17
		c0.653-0.008,0.871-0.42,0.959-0.52c-0.158-0.139-0.349-0.242-0.508-0.38c0.187-0.075,0.388-0.134,0.574-0.208
		C41.664,19.709,41.597,19.375,41.252,19.181z"/>
	<path d="M28.759,23.548c0.255,0.226,0.979,0.302,1.476-0.14c-0.041-0.535-0.396-0.933-0.815-1.019
		c-0.451-0.092-0.662,0.158-0.737,0.214c0.088,0.118,0.203,0.218,0.293,0.336c-0.141,0.024-0.287,0.034-0.426,0.058
		C28.554,23.125,28.551,23.365,28.759,23.548z"/>
	<path d="M30.014,25.299c0.307-0.181,0.624-0.881,0.354-1.522c-0.541-0.132-1.051,0.092-1.276,0.485
		c-0.24,0.42-0.064,0.713-0.034,0.806c0.146-0.049,0.281-0.133,0.429-0.182c-0.023,0.147-0.063,0.296-0.086,0.444
		C29.528,25.365,29.763,25.447,30.014,25.299z"/>
	<path d="M32.064,24.479c-0.101-0.34-0.701-0.812-1.386-0.701c-0.258,0.492-0.162,1.039,0.163,1.349
		c0.347,0.331,0.673,0.23,0.77,0.224c-0.013-0.153-0.061-0.304-0.073-0.458c0.137,0.056,0.272,0.129,0.407,0.186
		C32.012,24.964,32.146,24.756,32.064,24.479z"/>
	<path d="M32.107,23.71c0.417-0.203,0.435-0.535,0.461-0.625c-0.144-0.042-0.3-0.05-0.443-0.092
		c0.099-0.105,0.209-0.203,0.307-0.308c-0.082-0.099-0.227-0.294-0.509-0.314c-0.343-0.025-0.976,0.359-1.102,1.021
		C31.183,23.797,31.714,23.899,32.107,23.71z"/>
	<path d="M30.547,23.151c0.518-0.225,0.789-0.713,0.729-1.161c-0.063-0.478-0.384-0.601-0.466-0.656
		c-0.086,0.128-0.146,0.277-0.232,0.405c-0.072-0.13-0.132-0.271-0.204-0.402c-0.125,0.049-0.362,0.129-0.473,0.398
		C29.765,22.066,29.938,22.811,30.547,23.151z"/>
	<path d="M33.681,20.172c0.074-0.403-0.108-0.768-0.403-0.915c-0.314-0.157-0.521-0.014-0.587,0.012
		c0.042,0.105,0.108,0.201,0.149,0.306c-0.107-0.01-0.218-0.031-0.325-0.042c-0.021,0.096-0.071,0.272,0.047,0.449
		C32.705,20.201,33.226,20.401,33.681,20.172z"/>
	<path d="M32.833,21.116c-0.046,0.104-0.104,0.207-0.15,0.311c0.088,0.053,0.244,0.159,0.459,0.099
		c0.263-0.073,0.636-0.528,0.563-1.056c-0.372-0.205-0.794-0.14-1.038,0.106c-0.261,0.263-0.188,0.514-0.186,0.589
		C32.598,21.158,32.716,21.123,32.833,21.116z"/>
	<path d="M33.936,20.533c-0.288,0.313-0.328,0.736-0.148,1.029c0.191,0.313,0.453,0.303,0.525,0.317
		c0.021-0.116,0.016-0.237,0.037-0.353c0.09,0.069,0.176,0.149,0.265,0.219c0.071-0.072,0.213-0.199,0.207-0.421
		C34.813,21.054,34.462,20.586,33.936,20.533z"/>
	<path d="M34.116,20.275c0.188,0.372,0.56,0.553,0.888,0.49c0.35-0.067,0.428-0.31,0.465-0.371c-0.099-0.059-0.211-0.096-0.31-0.155
		c0.093-0.058,0.195-0.109,0.289-0.167c-0.042-0.09-0.11-0.263-0.314-0.333C34.885,19.652,34.341,19.812,34.116,20.275z"/>
	<path d="M34.73,19.33c0.048-0.365-0.165-0.52-0.214-0.577c-0.089,0.077-0.163,0.175-0.253,0.253
		c-0.027-0.11-0.044-0.227-0.07-0.336c-0.102,0.011-0.295,0.022-0.43,0.2c-0.167,0.217-0.186,0.802,0.198,1.174
		C34.389,19.979,34.686,19.672,34.73,19.33z"/>
	<path d="M41.728,12.514c1.802-0.705,2.69-2.736,1.986-4.538c-0.497-1.268-1.65-2.081-2.918-2.208
		c0.394,0.354,0.715,0.8,0.922,1.327c0.704,1.801-0.186,3.833-1.986,4.538c-0.533,0.208-1.086,0.274-1.618,0.221
		C39.066,12.709,40.454,13.012,41.728,12.514z"/>
	<path d="M43.077,29.958c-0.703,0.001-2.962,0.145-5.878,0.807c0.414-1.103,0.911-1.257,0.844-1.938
		c-0.054-0.528-0.369-0.594-1.165-1.704c-0.404-0.563-1.069-1.578-0.711-2.027c0.186-0.232,0.174-0.386,0.646-0.591
		c1.051-0.456,1.154-2.673,1.028-2.709c-0.061-0.017-0.248,0.436-0.342,0.736c-0.202,0.642-0.18,0.793-0.363,1.104
		c-0.282,0.477-0.781,0.761-1.229,0.521c-0.305-0.163-0.233-0.439-0.602-0.995c-0.389-0.587-2.342-1.724-1.814-0.801
		c0.429,0.75,0.735,0.669,1.189,1.425c0.34,0.567,0.199,0.852,0.44,1.452c0.569,1.408-3.067-1.473-2.782-1.042
		c0.537,0.815,2.787,2.041,3.002,2.606c0.184,0.476,0.389,0.578,0.706,1.486c0.361,1.033,0.418,1.516,0.124,2.013
		c-0.19,0.322-0.41,0.53-0.549,0.857c-1.858,0.51-3.897,1.237-5.932,2.247c-2.436-1.757-5.849-2.422-9.174-2.979
		c-0.647-0.55-1.215-1.206-1.624-2.01c-0.46-0.905,0.987-5.525,0.286-6.835c-0.55-1.029-0.772-3.414-0.584-4.232
		c0.002-0.013,0.007-1.98,0.011-1.993c0.108-0.208,0.192-1.706,0.734-1.94c2.194-0.947,4.144-0.9,4.151-0.998
		c0.052-0.707-1.829,0.065-2.023,0.017c-0.106-0.026,0.248-0.634,0.192-0.688c-0.089-0.003-0.563,0.749-0.658,0.754
		c-0.543,0.027-0.298,0.315-0.715,0.297c-0.708-0.032-0.617,0.3-1.155,0.265c-0.643-0.042-0.557,0.822-0.678,0.789
		c-0.196-0.055,0.27-1.373-0.258-1.76c-0.068-0.049-0.152-0.077-0.241-0.088c-0.326,0.025-0.146,0.315-0.666,0.339
		c-0.053,0.003-0.102,0-0.147-0.006c-0.016,0.021-0.035,0.039-0.048,0.062c-0.26,0.415,0.031,0.875,0.383,2.051
		c0.302,1.01,0.191,2.713,0.191,2.798c0.01,5.273-3.446,0.704-3.401,1.396c0.104,1.585,4.321,1.431,3.565,4.574
		c-0.728,3.024-1.805,5.207-2.303,6.247c-0.13-0.033-0.272-0.059-0.4-0.094c-2.74-0.755-5.573-1.182-8.434-1.273
		c-0.353-0.013-0.646,0.272-0.65,0.627c-0.005,0.345,0.269,0.627,0.615,0.639c2.758,0.089,5.491,0.502,8.132,1.229
		c4.12,1.135,9.882,1.172,13.613,3.495c-0.672,0.376-1.338,0.775-1.992,1.222c-1.266,0.865-11.893,7.678-15.184,7.485
		c-0.379-0.021-0.71,0.255-0.744,0.635l0,0.005c-0.033,0.387,0.256,0.732,0.645,0.755c0.491,0.029,0.976,0.043,1.458,0.043
		c2.966,0,13.351-6.905,14.614-7.768c2.917-1.993,5.871-3.203,8.443-3.944c0.143,0.768,0.37,1.724,0.497,2.169
		c0.237,0.832,0.118,0.915,0.321,1.715c0.186,0.74,0.434,1.724,1.037,1.865c0.347,0.082,1.068-0.051,1.101-0.077
		c0.396-0.328,0.413-1.015,0.14-1.316c-0.197-0.215-0.434-0.868-0.57-1.313c-0.135-0.436-0.389-0.338-0.424-0.77
		c-0.015-0.194-0.097-0.356-0.1-0.556c-0.009-0.438-0.376-1.096-0.601-1.404c-0.161-0.224-0.208-0.426-0.214-0.633
		c3.132-0.771,5.521-0.843,6.24-0.843c0.38,0,0.695-0.292,0.709-0.673v-0.002C43.796,30.283,43.474,29.958,43.077,29.958z"/>
	<circle cx="35.13" cy="38.018" r="0.524"/>
	<circle cx="26.878" cy="43.305" r="0.524"/>
	<circle cx="40.024" cy="42.78" r="0.524"/>
</g>
</svg>
