<?xml version="1.0" encoding="utf-8"?>
<!-- Generator: Adobe Illustrator 16.0.0, SVG Export Plug-In . SVG Version: 6.00 Build 0)  -->
<!DOCTYPE svg PUBLIC "-//W3C//DTD SVG 1.1//EN" "http://www.w3.org/Graphics/SVG/1.1/DTD/svg11.dtd">
<svg version="1.1" id="Layer_1" xmlns="http://www.w3.org/2000/svg" xmlns:xlink="http://www.w3.org/1999/xlink" x="0px" y="0px"
	 width="50px" height="50px" viewBox="0 0 50 50" enable-background="new 0 0 50 50" xml:space="preserve" fill="#b11d38">
<path d="M36.912,25.731c0.004-0.14-0.299-1.121-0.444-1.372c-0.212-0.368-0.209-1.131-0.383-1.522
	c-0.178-0.401-0.388-0.405-0.54-0.844c-0.067-0.196-0.061-0.296-0.09-0.445c-0.166-0.878-0.947-0.999-0.479-1.953
	c0.207-0.422,0.068-0.906,0.039-1.129c-0.083-0.617-0.498-0.871-0.632-1.551c-0.073-0.371,0.056-0.457,0.023-1.141
	c-0.007-0.145-0.019-0.279-0.032-0.4c-0.03-0.253-0.205-0.459-0.444-0.549c-0.104-0.04-0.223-0.091-0.368-0.148
	c-0.577-0.23,0,0,0.369,0.643c0.114,0.197,0.063,0.507,0.064,0.55c0.016,0.698-0.229,0.881-0.132,1.271
	c0.104,0.425,0.223,0.404,0.385,0.858c0.162,0.451,0.229,0.977-0.127,1.358c-0.034,0.036-0.067,0.068-0.103,0.098
	c-0.281,0.244-0.349,0.644-0.139,0.948c0.175,0.255,0.154,0.377,0.321,0.699c0.012,0.025,0.025,0.048,0.037,0.073
	c0.23,0.455,0.163,0.764-0.351,0.774c-0.047,0.001-0.089,0.003-0.13,0.005c-0.188,0.013-0.256-0.108-0.497-0.168
	c-0.08-0.02-0.435,0.032-0.671-0.24c-0.366-0.423-0.259-0.462-0.576-1.122c-0.043-0.091-0.203-0.403-0.507-0.641
	c-0.748-0.587-2.541,0.003-2.423-0.006c0.809-0.058,1.002-0.003,1.945,0.329c0.202,0.071,0.302,0.106,0.375,0.169
	c0.662,0.57,0.153,1.773,0.627,2.033c0.214,0.117,0.447,0.076,0.846,0.298c0.11,0.062,0.119,0.099,0.216,0.169
	c0.501,0.368-0.029,0.178,0.795,0.462c0.201,0.068,0.179,0.102,0.307,0.244c0.21,0.229,0.173,0.283,0.351,0.971
	c0.136,0.524-0.267,1.038-0.195,1.048C36.815,25.872,36.892,26.552,36.912,25.731"/>
<path d="M39.903,15.683c0.094-0.068,0.234-0.189,0.251-0.302c0.021-0.125-0.147-0.135-0.22-0.322
	c-0.087-0.226,0.095-0.381-0.026-0.464c-0.079-0.053-0.282-0.062-0.387-0.063c-0.038,0-0.067-0.02-0.071-0.048
	c-0.009-0.077-0.037-0.224-0.12-0.279c-0.1-0.063-0.152-0.023-0.222-0.016c-0.043,0.004-0.075-0.027-0.053-0.057
	c0.072-0.1,0.178-0.282,0.114-0.429c-0.014-0.03-0.034-0.05-0.058-0.068c0.033-0.167-0.117-0.331-0.228-0.423
	c-0.024-0.021-0.01-0.064,0.021-0.063c0.225,0.014,0.667,0.001,0.515-0.347c-0.368-0.847-0.89-0.128-1.073-0.611
	c-0.097-0.253,0.259-0.58-0.003-0.627c-0.532-0.094-0.812,0.046-0.949,0.169c-0.033,0.031-0.085,0.003-0.082-0.046
	c0.01-0.196-0.041-0.496-0.396-0.678c-0.017-0.008-0.036-0.008-0.054-0.012c-0.099-0.178-0.324-0.393-0.607-0.506
	c0.01-0.089,0.001-0.163-0.042-0.206c-0.271-0.27-0.459-0.009-0.673,0.078c-0.017-0.007-0.03-0.008-0.05-0.019
	c-0.232-0.131-0.247-0.301-0.384-0.382c0-0.242,0.045-0.506-0.319-0.621c-0.352-0.11-0.303,0.213-0.409,0.366
	c-0.022,0.032-0.057,0.045-0.09,0.047c-0.031-0.024-0.07-0.043-0.115-0.059c-0.093-0.116-0.237-0.27-0.396-0.357
	c-0.021-0.076-0.05-0.147-0.09-0.188c-0.133-0.129-0.334,0.073-0.667-0.015c-0.275-0.072-0.311-0.255-0.486-0.23
	c-0.16,0.022-0.316,0.18-0.402,0.284c-0.036,0.042-0.102,0.043-0.134-0.001c-0.074-0.1-0.041-0.312-0.284-0.239
	c-0.404,0.12-0.077,0.495-0.325,0.654c-0.248,0.158-0.397-0.284-0.66-0.035c-0.122,0.115,0.122,0.549,0.263,0.779
	c-0.021,0.005-0.041,0.006-0.063,0.011c-0.194-0.164-0.517-0.398-0.686-0.316c-0.19,0.092-0.253,0.229-0.27,0.347
	c-0.072-0.075-0.144-0.128-0.209-0.132c-0.182-0.013-0.262,0.046-0.305,0.132c-0.062,0.001-0.128,0.004-0.204,0.017
	c-0.181,0.03,0.063,0.245-0.002,0.411C29.18,11,29.03,10.926,28.868,10.931c-0.297-0.195-0.529-0.636-0.966-0.424
	c-0.342,0.167-0.002,0.409,0.069,0.621c0.033,0.093-0.033,0.163-0.129,0.145c-0.234-0.043-0.616-0.082-0.805,0.06
	c-0.209,0.157,0.021,0.436-0.143,0.827c-0.2,0.475-0.691,0.425-0.633,0.737c0.038,0.203,0.322,0.532,0.476,0.699
	c0.056,0.059,0.069,0.135,0.034,0.182c-0.099,0.13-0.271,0.394-0.227,0.607c0.054,0.251,0.188,0.271,0.301,0.369
	c0.071,0.062,0.068,0.158-0.006,0.169c-0.249,0.036-0.667,0.145-0.786,0.463c-0.114,0.303,0.212,0.543,0.167,1.028
	c-0.038,0.425-0.301,0.388-0.479,0.82c-0.043,0.104-0.042,0.217-0.013,0.333c-0.052,0.06-0.014,0.138,0.088,0.224
	c0.088,0.157,0.219,0.312,0.372,0.451c0.029,0.266,0.271,0.288,0.23,0.554c-0.045,0.291-0.32,0.216-0.266,0.562
	c0.056,0.352,0.354,0.428,0.354,0.428s-0.365,0.453-0.289,0.69c0.172,0.536,0.598,0.218,0.596,0.362
	c-0.001,0.088-0.122,0.133-0.197,0.294c-0.082,0.171,0.05,0.463,0.271,0.565c0.256,0.12,0.694-0.034,0.866-0.22
	c0.443-0.483,0.116-0.505,0.36-0.649c0.175-0.102,0.189-0.043,0.293-0.187c0.124-0.169,0.003-0.284-0.045-0.41
	c-0.017-0.044,0.019-0.09,0.068-0.089c0.101,0.001,0.241-0.049,0.315-0.311c0.098-0.349,0.019-0.476-0.083-0.583
	c0.038-0.011,0.078-0.019,0.129-0.018c0.333,0.01,0.428,0.344,0.672,0.283c0.272-0.067,0.285-0.519,0.505-0.493
	c0.198,0.023,0.272,0.396,0.452,0.38c0.156-0.013,0.15-0.304,0.358-0.367c0.156-0.047,0.225,0.099,0.339,0.028
	c0.092-0.058,0.117-0.204,0.122-0.325c0.002-0.073,0.046-0.126,0.05-0.054c0.016,0.296,0.137,0.599,0.721,0.464
	c0.843-0.196,0.377-0.564,0.471-0.584c0.098-0.02,0.751,0.108,0.817-0.306c0.029-0.178-0.12-0.331-0.219-0.411
	c-0.02-0.016-0.017-0.058,0.005-0.06c0.154-0.011,0.451-0.072,0.298-0.373c-0.374-0.736-0.105-0.266-0.301-0.688
	c-0.103-0.221,0.09-0.559-0.095-0.573c-0.373-0.028-0.22,0.145-0.294,0.272c-0.02,0.033-0.058,0.013-0.063-0.033
	c-0.019-0.159-0.09-0.38-0.286-0.519c0.058-0.049,0.108-0.097,0.142-0.14c0.253-0.326-0.44-0.845-0.166-1.021
	c0.245-0.158,0.647,0.18,0.839-0.002c0.167-0.16-0.602-0.229-0.42-0.488c0.024-0.035,0.052-0.052,0.08-0.072
	c0.145,0.114,0.254,0.229,0.461,0.217c0.409-0.026,0.532-0.505,0.845-0.439c0.279,0.058,0.3,0.467,0.562,0.482
	c0.165,0.009,0.244-0.149,0.393-0.25c0.065,0.061,0.134,0.136,0.175,0.281c0.1,0.341-0.114,0.499,0.009,0.736
	c0.136,0.268,0.47,0.201,0.52,0.431c0.047,0.207-0.201,0.348-0.134,0.528c0.062,0.158,0.271,0.103,0.384,0.303
	c0.083,0.151-0.001,0.247,0.088,0.351c0.07,0.084,0.187,0.085,0.276,0.068c0.053-0.01,0.105,0.025,0.054,0.042
	c-0.211,0.067-0.394,0.245-0.108,0.818c0.411,0.828,0.531,0.287,0.576,0.379c0.047,0.097,0.161,0.786,0.484,0.783
	c0.139-0.002,0.204-0.182,0.229-0.295c0.006-0.024,0.038-0.027,0.046-0.005c0.057,0.155,0.196,0.448,0.368,0.238
	c0.178-0.217,0.167-0.363,0.12-0.483c0.418-0.21,0.03-0.415,0.307-0.523c0.15-0.059,0.352,0.097,0.376-0.032
	c0.049-0.262-0.037-0.39-0.114-0.45c-0.02-0.015-0.003-0.041,0.026-0.042c0.119-0.004,0.297-0.044,0.401-0.224
	c0.077-0.136-0.192-0.37-0.343-0.486c-0.015-0.011,0.004-0.03,0.023-0.022c0.205,0.078,0.636,0.231,0.743,0.134
	c0.221-0.202-0.186-0.273-0.047-0.458c0.141-0.186,0.49,0.015,0.592-0.276c0.062-0.175-0.132-0.136-0.225-0.18
	C39.866,15.756,39.865,15.711,39.903,15.683"/>
<path d="M45.08,32.081c-1.138-0.533-3.566-3.542-4.273-3.925c-1.404-0.761-1.724-1.413-4.066-2.104
	c0.027,0.019,0.046,0.036,0.047,0.057c0.008,0.112-0.353,0.506-0.469,0.706c-0.168,0.292-0.74,0.575-0.879,0.886
	c-0.142,0.319-0.309,0.321-0.429,0.672c-0.056,0.155-0.049,0.234-0.072,0.354c-0.133,0.698-0.755,0.795-0.383,1.554
	c0.166,0.335,0.056,0.719,0.032,0.896c-0.065,0.49-0.396,0.692-0.503,1.233c-0.058,0.295,0.044,0.363,0.02,0.907
	c-0.005,0.115-0.014,0.223-0.026,0.318c-0.024,0.202-0.163,0.365-0.353,0.437c-0.082,0.032-0.177,0.072-0.292,0.118
	c-0.46,0.184,0,0,0.293-0.511c0.09-0.156,0.051-0.403,0.051-0.437c0.012-0.556-0.182-0.701-0.104-1.011
	c0.084-0.338,0.178-0.321,0.307-0.683c0.127-0.358,0.182-0.777-0.103-1.081c-0.025-0.028-0.053-0.054-0.081-0.077
	c-0.223-0.195-0.276-0.512-0.109-0.755c0.139-0.202,0.122-0.299,0.255-0.555c0.01-0.021,0.021-0.039,0.029-0.059
	c0.183-0.362,0.129-0.607-0.279-0.616c-0.037,0-0.07-0.002-0.104-0.005c-0.149-0.009-0.203,0.088-0.396,0.135
	c-0.063,0.017-0.344-0.025-0.532,0.191c-0.29,0.336,0.031,0.283-0.221,0.809c-0.035,0.071-0.157,0.366-0.399,0.557
	c-0.595,0.465-2.185-0.236-2.091-0.229c0.643,0.045,0.717,0.036,1.466-0.229c0.161-0.057,0.241-0.084,0.299-0.135
	c0.526-0.452,0.125-1.172,0.502-1.378c0.17-0.094,0.356-0.062,0.672-0.236c0.088-0.05,0.095-0.079,0.172-0.135
	c0.399-0.293-0.023-0.142,0.632-0.368c0.16-0.055,0.142-0.082,0.244-0.194c0.166-0.182,0.137-0.225,0.279-0.772
	c0.107-0.417,0.106-0.938,0.157-0.965c0.157-0.079,1.859,0.525,2.368,0.602c-1.554-0.422-4.757-1.092-7.736-1.268
	c-5.846-0.344-12.087,0.529-14.158,2.761c-0.162,0.176-1.22,0.414-1.467,0.515c-0.002,0.001-11.233,2.15-11.233,4.933
	s3.397,5.429,11.324,5.429c2.226,0,5.161-0.187,7.043,0.11c4.035,0.633,8.222,2.563,13.438,2.563c7.925,0,13.903-2.695,13.903-5.478
	C47.854,34.443,46.984,32.974,45.08,32.081 M38.501,33.885c-0.07,0.181,0.074,0.304-0.021,0.369
	c-0.063,0.043-0.224,0.05-0.309,0.051c-0.03,0-0.054,0.016-0.056,0.038c-0.007,0.061-0.029,0.178-0.097,0.222
	c-0.079,0.05-0.12,0.018-0.176,0.012c-0.034-0.003-0.06,0.022-0.041,0.046c0.057,0.079,0.142,0.223,0.09,0.341
	c-0.011,0.023-0.027,0.04-0.045,0.055c0.025,0.132-0.093,0.263-0.182,0.336c-0.02,0.017-0.008,0.052,0.018,0.05
	c0.179-0.011,0.53-0.001,0.41,0.276c-0.294,0.673-0.71,0.102-0.854,0.486c-0.076,0.201,0.206,0.461-0.002,0.498
	c-0.423,0.075-0.646-0.036-0.755-0.135c-0.027-0.025-0.068-0.003-0.066,0.037c0.01,0.157-0.032,0.395-0.314,0.539
	c-0.013,0.006-0.029,0.006-0.043,0.009c-0.077,0.142-0.257,0.313-0.483,0.403c0.01,0.07,0.002,0.129-0.032,0.162
	c-0.217,0.215-0.365,0.009-0.535-0.062c-0.014,0.006-0.024,0.007-0.039,0.015c-0.186,0.104-0.198,0.239-0.307,0.305
	c0,0.192,0.037,0.402-0.253,0.493c-0.28,0.088-0.241-0.169-0.326-0.291c-0.019-0.024-0.044-0.036-0.071-0.037
	c-0.024,0.02-0.056,0.035-0.091,0.046c-0.074,0.093-0.188,0.215-0.316,0.285c-0.017,0.061-0.039,0.118-0.071,0.149
	c-0.104,0.104-0.266-0.059-0.53,0.011c-0.219,0.058-0.245,0.204-0.386,0.184c-0.127-0.018-0.251-0.144-0.32-0.226
	c-0.028-0.034-0.08-0.035-0.106,0c-0.06,0.079-0.032,0.248-0.226,0.19c-0.321-0.096-0.062-0.392-0.26-0.521
	c-0.196-0.126-0.314,0.227-0.524,0.029c-0.097-0.091,0.098-0.438,0.21-0.62c-0.019-0.004-0.034-0.005-0.052-0.009
	c-0.154,0.131-0.41,0.316-0.544,0.251c-0.152-0.072-0.202-0.182-0.215-0.275c-0.058,0.059-0.115,0.102-0.166,0.104
	c-0.145,0.011-0.208-0.036-0.242-0.104c-0.05-0.001-0.103-0.003-0.163-0.015c-0.144-0.023,0.051-0.194-0.001-0.325
	c-0.059-0.145-0.178-0.086-0.307-0.09c-0.236,0.156-0.421,0.506-0.767,0.337c-0.273-0.133-0.001-0.325,0.055-0.493
	c0.026-0.074-0.027-0.13-0.103-0.115c-0.187,0.034-0.491,0.064-0.641-0.048c-0.166-0.125,0.017-0.347-0.113-0.658
	c-0.158-0.376-0.55-0.337-0.503-0.585c0.029-0.161,0.257-0.423,0.378-0.556c0.044-0.047,0.056-0.108,0.026-0.146
	c-0.078-0.104-0.215-0.313-0.179-0.481c0.041-0.2,0.149-0.216,0.239-0.294c0.056-0.05,0.055-0.125-0.005-0.134
	c-0.199-0.029-0.53-0.115-0.626-0.368c-0.091-0.242,0.169-0.432,0.134-0.817c-0.03-0.339-0.24-0.31-0.381-0.653
	c-0.035-0.082-0.033-0.172-0.011-0.265c-0.041-0.047-0.011-0.109,0.07-0.179c0.069-0.124,0.175-0.247,0.296-0.357
	c0.024-0.212,0.216-0.229,0.183-0.441c-0.035-0.23-0.255-0.172-0.21-0.446c0.044-0.278,0.281-0.34,0.281-0.34
	s-0.29-0.36-0.229-0.548c0.136-0.428,0.476-0.176,0.475-0.289c-0.002-0.07-0.099-0.105-0.159-0.234
	c-0.064-0.137,0.042-0.367,0.216-0.45c0.205-0.095,0.554,0.029,0.689,0.177c0.353,0.384,0.092,0.4,0.286,0.516
	c0.14,0.081,0.151,0.035,0.233,0.148c0.099,0.135,0.001,0.226-0.036,0.326c-0.014,0.035,0.015,0.071,0.055,0.07
	c0.08-0.001,0.191,0.039,0.25,0.246c0.078,0.279,0.016,0.379-0.065,0.465c0.029,0.009,0.063,0.016,0.103,0.015
	c0.264-0.008,0.341-0.273,0.534-0.226c0.217,0.053,0.226,0.413,0.402,0.392c0.157-0.018,0.216-0.314,0.358-0.303
	c0.125,0.011,0.12,0.242,0.285,0.291c0.124,0.039,0.179-0.078,0.269-0.022c0.073,0.048,0.095,0.163,0.099,0.259
	c0.001,0.059,0.037,0.102,0.039,0.043c0.013-0.236,0.109-0.477,0.573-0.369c0.671,0.155,0.3,0.449,0.374,0.465
	c0.078,0.017,0.597-0.087,0.65,0.244c0.022,0.14-0.096,0.262-0.175,0.325c-0.016,0.013-0.013,0.045,0.005,0.048
	c0.122,0.009,0.358,0.056,0.237,0.297c-0.298,0.584-0.085,0.211-0.241,0.546c-0.081,0.177,0.072,0.445-0.074,0.456
	c-0.297,0.022-0.175-0.114-0.233-0.217c-0.016-0.025-0.046-0.01-0.051,0.026c-0.015,0.127-0.07,0.302-0.227,0.413
	c0.046,0.04,0.085,0.077,0.112,0.11c0.201,0.261-0.351,0.674-0.133,0.813c0.195,0.125,0.516-0.143,0.666,0.003
	c0.134,0.127-0.478,0.181-0.332,0.388c0.019,0.028,0.04,0.041,0.063,0.058c0.113-0.091,0.201-0.183,0.368-0.171
	c0.324,0.019,0.422,0.399,0.67,0.348c0.223-0.047,0.239-0.373,0.447-0.384c0.131-0.007,0.194,0.119,0.313,0.2
	c0.052-0.049,0.105-0.108,0.14-0.224c0.077-0.272-0.092-0.396,0.005-0.586c0.108-0.213,0.375-0.16,0.415-0.343
	c0.036-0.163-0.161-0.276-0.106-0.42c0.047-0.126,0.215-0.081,0.303-0.24c0.068-0.121,0-0.196,0.07-0.28
	c0.058-0.066,0.149-0.067,0.22-0.054c0.043,0.008,0.086-0.021,0.044-0.033c-0.167-0.053-0.313-0.195-0.086-0.65
	c0.327-0.658,0.423-0.229,0.458-0.302c0.036-0.078,0.127-0.627,0.385-0.622c0.111,0,0.162,0.144,0.184,0.234
	c0.003,0.019,0.029,0.022,0.034,0.004c0.047-0.124,0.158-0.356,0.294-0.189c0.141,0.173,0.134,0.288,0.096,0.384
	c0.332,0.168,0.024,0.331,0.245,0.416c0.119,0.048,0.278-0.076,0.298,0.026c0.039,0.208-0.03,0.309-0.092,0.357
	c-0.016,0.011-0.002,0.032,0.021,0.033c0.095,0.004,0.236,0.035,0.319,0.178c0.061,0.108-0.152,0.295-0.273,0.387
	c-0.011,0.009,0.005,0.023,0.02,0.018c0.163-0.062,0.506-0.184,0.592-0.106c0.176,0.161-0.148,0.217-0.037,0.364
	c0.11,0.147,0.389-0.013,0.47,0.22c0.049,0.139-0.104,0.107-0.179,0.143c-0.033,0.016-0.033,0.052-0.003,0.074
	c0.073,0.054,0.186,0.15,0.2,0.239C38.69,33.729,38.557,33.738,38.501,33.885"/>
</svg>
